,e_value,target,pred,true,not trivial,low activity,false,not found
0,1e-10,AVPR1A,5.0,1.0,1.0,1.0,4.0,2.0
1,1e-10,PTGS2,8.0,8.0,0.0,0.0,0.0,27.0
2,1e-10,HTR3A,7.0,5.0,0.0,0.0,2.0,13.0
3,1e-10,CHRM2,17.0,11.0,3.0,0.0,6.0,49.0
4,1e-10,DRD3,14.0,11.0,2.0,0.0,3.0,53.0
5,1e-10,AR,17.0,11.0,3.0,0.0,6.0,27.0
6,1e-10,DRD2,14.0,12.0,1.0,0.0,2.0,59.0
7,1e-10,SCN5A,3.0,2.0,1.0,0.0,1.0,18.0
8,1e-10,OPRK1,22.0,9.0,3.0,0.0,13.0,30.0
9,1e-10,ADRA1A,7.0,7.0,0.0,0.0,0.0,61.0
10,1e-10,CNR1,1.0,1.0,0.0,0.0,0.0,4.0
11,1e-10,ESR2,16.0,8.0,0.0,0.0,8.0,3.0
12,1e-10,GIPR,1.0,0.0,0.0,0.0,1.0,0.0
13,1e-10,HTR2A,5.0,4.0,0.0,0.0,1.0,83.0
14,1e-10,ADRB2,28.0,22.0,8.0,1.0,6.0,14.0
15,1e-10,TACR1,16.0,1.0,0.0,0.0,15.0,7.0
16,1e-10,SLC6A3,37.0,15.0,4.0,1.0,22.0,53.0
17,1e-10,ADORA2A,4.0,1.0,1.0,0.0,3.0,22.0
18,1e-10,GABRA1,21.0,14.0,4.0,0.0,7.0,27.0
19,1e-10,EDNRB,8.0,1.0,0.0,0.0,7.0,1.0
20,1e-10,HRH1,25.0,24.0,1.0,0.0,1.0,37.0
21,1e-10,EDNRA,9.0,2.0,0.0,0.0,7.0,4.0
22,1e-10,ADRA2A,24.0,21.0,5.0,1.0,3.0,69.0
23,1e-10,HTR1A,8.0,4.0,0.0,0.0,4.0,59.0
24,1e-10,DRD1,15.0,11.0,2.0,0.0,4.0,48.0
25,1e-10,GHSR,4.0,0.0,0.0,0.0,4.0,0.0
26,1e-10,CACNA1C,10.0,10.0,4.0,0.0,0.0,2.0
27,1e-10,BDKRB2,0.0,0.0,0.0,0.0,0.0,2.0
28,1e-10,PDE4D,2.0,1.0,1.0,0.0,1.0,10.0
29,1e-10,GRIN3A,13.0,6.0,5.0,0.0,7.0,7.0
30,1e-10,OPRM1,33.0,11.0,6.0,0.0,22.0,27.0
31,1e-10,NR1I2,17.0,1.0,0.0,0.0,16.0,7.0
32,1e-10,CCKBR,31.0,3.0,2.0,1.0,28.0,2.0
33,1e-10,HTR2C,10.0,7.0,1.0,0.0,3.0,77.0
34,1e-10,SLC6A2,33.0,18.0,7.0,3.0,15.0,56.0
35,1e-10,OPRD1,29.0,8.0,4.0,1.0,21.0,17.0
36,1e-10,CHRM1,25.0,18.0,9.0,0.0,7.0,50.0
37,1e-10,SLC6A4,23.0,16.0,7.0,0.0,7.0,62.0
38,1e-10,NTSR1,32.0,0.0,0.0,0.0,32.0,0.0
39,1e-10,MC4R,18.0,0.0,0.0,0.0,18.0,6.0
40,1e-10,HRH3,3.0,2.0,1.0,0.0,1.0,6.0
41,1e-10,AGTR1,7.0,7.0,1.0,0.0,0.0,0.0
42,1e-10,ADRB1,21.0,16.0,4.0,0.0,5.0,24.0
43,1e-10,NR3C1,18.0,18.0,7.0,2.0,0.0,18.0
44,1e-10,ADRA2B,26.0,20.0,6.0,2.0,6.0,61.0
45,1e-10,MC3R,24.0,0.0,0.0,0.0,24.0,5.0
46,1e-10,MAOA,0.0,0.0,0.0,0.0,0.0,18.0
47,1e-10,CCKAR,24.0,2.0,1.0,0.0,22.0,2.0
48,1e-10,ADRA2C,23.0,19.0,6.0,1.0,4.0,52.0
49,1e-10,KCNH2,7.0,7.0,0.0,0.0,0.0,75.0
50,1e-10,HRH2,15.0,9.0,0.0,0.0,6.0,30.0
51,1e-10,ESR1,14.0,11.0,2.0,0.0,3.0,9.0
52,1e-10,ADORA3,11.0,1.0,1.0,0.0,10.0,14.0
53,1e-10,CRHR1,0.0,0.0,0.0,0.0,0.0,0.0
54,1e-10,ADORA1,10.0,5.0,4.0,0.0,5.0,15.0
55,1e-10,PTGS1,9.0,8.0,1.0,0.0,1.0,34.0
56,1e-10,BDKRB1,1.0,0.0,0.0,0.0,1.0,0.0
57,1e-10,HTR2B,14.0,12.0,0.0,0.0,2.0,69.0
58,1e-10,SLC29A1,11.0,2.0,0.0,0.0,9.0,1.0
59,1e-10,TBXA2R,3.0,0.0,0.0,0.0,3.0,0.0
60,1e-10,DRD4,16.0,8.0,2.0,0.0,8.0,34.0
61,1e-10,MLN,21.0,1.0,0.0,0.0,20.0,0.0
62,1e-10,PDE3A,4.0,3.0,0.0,0.0,1.0,6.0
63,1e-10,ADRB3,18.0,11.0,2.0,0.0,7.0,12.0
64,1e-10,AVPR2,4.0,0.0,0.0,0.0,4.0,2.0
65,1e-10,GPR109A,1.0,1.0,0.0,0.0,0.0,0.0
66,1e-10,PGR,7.0,6.0,3.0,0.0,1.0,12.0
67,1e-10,CACNA1B,23.0,1.0,1.0,0.0,22.0,2.0
68,1e-10,NPY1R,5.0,0.0,0.0,0.0,5.0,0.0
69,1e-10,CHRNA10,6.0,2.0,1.0,0.0,4.0,13.0
70,1e-10,CRHR2,3.0,0.0,0.0,0.0,3.0,0.0
71,1e-10,NPY2R,4.0,0.0,0.0,0.0,4.0,1.0
72,1e-10,CHRM3,19.0,10.0,4.0,0.0,9.0,47.0
73,1e-09,AVPR1A,7.0,1.0,1.0,1.0,6.0,2.0
74,1e-09,PTGS2,8.0,8.0,0.0,0.0,0.0,27.0
75,1e-09,HTR3A,7.0,5.0,0.0,0.0,2.0,13.0
76,1e-09,CHRM2,20.0,14.0,5.0,0.0,6.0,46.0
77,1e-09,DRD3,15.0,12.0,3.0,0.0,3.0,52.0
78,1e-09,AR,17.0,11.0,3.0,0.0,6.0,27.0
79,1e-09,DRD2,15.0,12.0,1.0,0.0,3.0,59.0
80,1e-09,SCN5A,3.0,2.0,1.0,0.0,1.0,18.0
81,1e-09,OPRK1,29.0,10.0,4.0,0.0,19.0,29.0
82,1e-09,ADRA1A,8.0,8.0,0.0,0.0,0.0,60.0
83,1e-09,CNR1,1.0,1.0,0.0,0.0,0.0,4.0
84,1e-09,ESR2,16.0,8.0,0.0,0.0,8.0,3.0
85,1e-09,GIPR,1.0,0.0,0.0,0.0,1.0,0.0
86,1e-09,HTR2A,11.0,10.0,0.0,0.0,1.0,77.0
87,1e-09,ADRB2,29.0,23.0,8.0,1.0,6.0,13.0
88,1e-09,TACR1,16.0,1.0,0.0,0.0,15.0,7.0
89,1e-09,SLC6A3,37.0,15.0,4.0,1.0,22.0,53.0
90,1e-09,ADORA2A,4.0,1.0,1.0,0.0,3.0,22.0
91,1e-09,GABRA1,22.0,14.0,4.0,0.0,8.0,27.0
92,1e-09,EDNRB,8.0,1.0,0.0,0.0,7.0,1.0
93,1e-09,HRH1,25.0,24.0,1.0,0.0,1.0,37.0
94,1e-09,EDNRA,9.0,2.0,0.0,0.0,7.0,4.0
95,1e-09,ADRA2A,25.0,22.0,6.0,1.0,3.0,68.0
96,1e-09,HTR1A,8.0,4.0,0.0,0.0,4.0,59.0
97,1e-09,DRD1,16.0,11.0,2.0,0.0,5.0,48.0
98,1e-09,GHSR,4.0,0.0,0.0,0.0,4.0,0.0
99,1e-09,CACNA1C,11.0,10.0,4.0,0.0,1.0,2.0
100,1e-09,BDKRB2,0.0,0.0,0.0,0.0,0.0,2.0
101,1e-09,PDE4D,2.0,1.0,1.0,0.0,1.0,10.0
102,1e-09,GRIN3A,15.0,6.0,5.0,0.0,9.0,7.0
103,1e-09,OPRM1,39.0,12.0,7.0,0.0,27.0,26.0
104,1e-09,NR1I2,17.0,1.0,0.0,0.0,16.0,7.0
105,1e-09,CCKBR,34.0,3.0,2.0,1.0,31.0,2.0
106,1e-09,HTR2C,11.0,8.0,1.0,0.0,3.0,76.0
107,1e-09,SLC6A2,34.0,18.0,7.0,3.0,16.0,56.0
108,1e-09,OPRD1,32.0,8.0,4.0,1.0,24.0,17.0
109,1e-09,CHRM1,26.0,19.0,10.0,0.0,7.0,49.0
110,1e-09,SLC6A4,28.0,18.0,8.0,1.0,10.0,60.0
111,1e-09,NTSR1,33.0,0.0,0.0,0.0,33.0,0.0
112,1e-09,MC4R,20.0,0.0,0.0,0.0,20.0,6.0
113,1e-09,HRH3,5.0,3.0,2.0,0.0,2.0,5.0
114,1e-09,AGTR1,7.0,7.0,1.0,0.0,0.0,0.0
115,1e-09,ADRB1,24.0,19.0,6.0,0.0,5.0,21.0
116,1e-09,NR3C1,20.0,20.0,9.0,2.0,0.0,16.0
117,1e-09,ADRA2B,26.0,20.0,6.0,2.0,6.0,61.0
118,1e-09,MC3R,25.0,0.0,0.0,0.0,25.0,5.0
119,1e-09,MAOA,2.0,2.0,2.0,0.0,0.0,16.0
120,1e-09,CCKAR,25.0,2.0,1.0,0.0,23.0,2.0
121,1e-09,ADRA2C,24.0,20.0,7.0,1.0,4.0,51.0
122,1e-09,KCNH2,7.0,7.0,0.0,0.0,0.0,75.0
123,1e-09,HRH2,15.0,9.0,0.0,0.0,6.0,30.0
124,1e-09,ESR1,14.0,11.0,2.0,0.0,3.0,9.0
125,1e-09,ADORA3,11.0,1.0,1.0,0.0,10.0,14.0
126,1e-09,CRHR1,0.0,0.0,0.0,0.0,0.0,0.0
127,1e-09,ADORA1,10.0,5.0,4.0,0.0,5.0,15.0
128,1e-09,PTGS1,16.0,15.0,1.0,0.0,1.0,27.0
129,1e-09,BDKRB1,1.0,0.0,0.0,0.0,1.0,0.0
130,1e-09,HTR2B,23.0,20.0,0.0,0.0,3.0,61.0
131,1e-09,SLC29A1,11.0,2.0,0.0,0.0,9.0,1.0
132,1e-09,TBXA2R,3.0,0.0,0.0,0.0,3.0,0.0
133,1e-09,DRD4,19.0,9.0,2.0,0.0,10.0,33.0
134,1e-09,MLN,23.0,1.0,0.0,0.0,22.0,0.0
135,1e-09,PDE3A,4.0,3.0,0.0,0.0,1.0,6.0
136,1e-09,ADRB3,19.0,12.0,2.0,0.0,7.0,11.0
137,1e-09,AVPR2,5.0,1.0,0.0,0.0,4.0,1.0
138,1e-09,GPR109A,1.0,1.0,0.0,0.0,0.0,0.0
139,1e-09,PGR,7.0,6.0,3.0,0.0,1.0,12.0
140,1e-09,CACNA1B,31.0,2.0,2.0,0.0,29.0,1.0
141,1e-09,NPY1R,5.0,0.0,0.0,0.0,5.0,0.0
142,1e-09,CHRNA10,6.0,2.0,1.0,0.0,4.0,13.0
143,1e-09,CRHR2,3.0,0.0,0.0,0.0,3.0,0.0
144,1e-09,NPY2R,6.0,0.0,0.0,0.0,6.0,1.0
145,1e-09,CHRM3,26.0,16.0,5.0,0.0,10.0,41.0
146,1e-08,AVPR1A,8.0,1.0,1.0,1.0,7.0,2.0
147,1e-08,PTGS2,8.0,8.0,0.0,0.0,0.0,27.0
148,1e-08,HTR3A,7.0,5.0,0.0,0.0,2.0,13.0
149,1e-08,CHRM2,20.0,14.0,5.0,0.0,6.0,46.0
150,1e-08,DRD3,16.0,12.0,3.0,0.0,4.0,52.0
151,1e-08,AR,18.0,12.0,4.0,1.0,6.0,26.0
152,1e-08,DRD2,16.0,12.0,1.0,0.0,4.0,59.0
153,1e-08,SCN5A,3.0,2.0,1.0,0.0,1.0,18.0
154,1e-08,OPRK1,32.0,12.0,6.0,0.0,20.0,27.0
155,1e-08,ADRA1A,11.0,10.0,0.0,0.0,1.0,58.0
156,1e-08,CNR1,1.0,1.0,0.0,0.0,0.0,4.0
157,1e-08,ESR2,17.0,9.0,0.0,0.0,8.0,2.0
158,1e-08,GIPR,2.0,0.0,0.0,0.0,2.0,0.0
159,1e-08,HTR2A,11.0,10.0,0.0,0.0,1.0,77.0
160,1e-08,ADRB2,29.0,23.0,8.0,1.0,6.0,13.0
161,1e-08,TACR1,17.0,1.0,0.0,0.0,16.0,7.0
162,1e-08,SLC6A3,41.0,15.0,4.0,1.0,26.0,53.0
163,1e-08,ADORA2A,4.0,1.0,1.0,0.0,3.0,22.0
164,1e-08,GABRA1,23.0,15.0,5.0,0.0,8.0,26.0
165,1e-08,EDNRB,9.0,1.0,0.0,0.0,8.0,1.0
166,1e-08,HRH1,25.0,24.0,1.0,0.0,1.0,37.0
167,1e-08,EDNRA,9.0,2.0,0.0,0.0,7.0,4.0
168,1e-08,ADRA2A,27.0,24.0,7.0,1.0,3.0,66.0
169,1e-08,HTR1A,9.0,4.0,0.0,0.0,5.0,59.0
170,1e-08,DRD1,16.0,11.0,2.0,0.0,5.0,48.0
171,1e-08,GHSR,7.0,0.0,0.0,0.0,7.0,0.0
172,1e-08,CACNA1C,12.0,10.0,4.0,0.0,2.0,2.0
173,1e-08,BDKRB2,0.0,0.0,0.0,0.0,0.0,2.0
174,1e-08,PDE4D,3.0,2.0,1.0,0.0,1.0,9.0
175,1e-08,GRIN3A,18.0,6.0,5.0,0.0,12.0,7.0
176,1e-08,OPRM1,40.0,12.0,7.0,0.0,28.0,26.0
177,1e-08,NR1I2,18.0,1.0,0.0,0.0,17.0,7.0
178,1e-08,CCKBR,35.0,3.0,2.0,1.0,32.0,2.0
179,1e-08,HTR2C,11.0,8.0,1.0,0.0,3.0,76.0
180,1e-08,SLC6A2,36.0,19.0,8.0,3.0,17.0,55.0
181,1e-08,OPRD1,35.0,8.0,4.0,1.0,27.0,17.0
182,1e-08,CHRM1,30.0,20.0,10.0,0.0,10.0,48.0
183,1e-08,SLC6A4,31.0,19.0,8.0,1.0,12.0,59.0
184,1e-08,NTSR1,35.0,0.0,0.0,0.0,35.0,0.0
185,1e-08,MC4R,24.0,0.0,0.0,0.0,24.0,6.0
186,1e-08,HRH3,7.0,3.0,2.0,0.0,4.0,5.0
187,1e-08,AGTR1,7.0,7.0,1.0,0.0,0.0,0.0
188,1e-08,ADRB1,25.0,20.0,7.0,0.0,5.0,20.0
189,1e-08,NR3C1,20.0,20.0,9.0,2.0,0.0,16.0
190,1e-08,ADRA2B,28.0,22.0,6.0,2.0,6.0,59.0
191,1e-08,MC3R,25.0,0.0,0.0,0.0,25.0,5.0
192,1e-08,MAOA,2.0,2.0,2.0,0.0,0.0,16.0
193,1e-08,CCKAR,26.0,2.0,1.0,0.0,24.0,2.0
194,1e-08,ADRA2C,24.0,20.0,7.0,1.0,4.0,51.0
195,1e-08,KCNH2,7.0,7.0,0.0,0.0,0.0,75.0
196,1e-08,HRH2,15.0,9.0,0.0,0.0,6.0,30.0
197,1e-08,ESR1,15.0,12.0,3.0,0.0,3.0,8.0
198,1e-08,ADORA3,11.0,1.0,1.0,0.0,10.0,14.0
199,1e-08,CRHR1,0.0,0.0,0.0,0.0,0.0,0.0
200,1e-08,ADORA1,12.0,5.0,4.0,0.0,7.0,15.0
201,1e-08,PTGS1,16.0,15.0,1.0,0.0,1.0,27.0
202,1e-08,BDKRB1,1.0,0.0,0.0,0.0,1.0,0.0
203,1e-08,HTR2B,26.0,23.0,0.0,0.0,3.0,58.0
204,1e-08,SLC29A1,11.0,2.0,0.0,0.0,9.0,1.0
205,1e-08,TBXA2R,3.0,0.0,0.0,0.0,3.0,0.0
206,1e-08,DRD4,24.0,14.0,2.0,0.0,10.0,28.0
207,1e-08,MLN,23.0,1.0,0.0,0.0,22.0,0.0
208,1e-08,PDE3A,4.0,3.0,0.0,0.0,1.0,6.0
209,1e-08,ADRB3,20.0,13.0,3.0,0.0,7.0,10.0
210,1e-08,AVPR2,6.0,1.0,0.0,0.0,5.0,1.0
211,1e-08,GPR109A,1.0,1.0,0.0,0.0,0.0,0.0
212,1e-08,PGR,7.0,6.0,3.0,0.0,1.0,12.0
213,1e-08,CACNA1B,32.0,2.0,2.0,0.0,30.0,1.0
214,1e-08,NPY1R,5.0,0.0,0.0,0.0,5.0,0.0
215,1e-08,CHRNA10,6.0,2.0,1.0,0.0,4.0,13.0
216,1e-08,CRHR2,4.0,0.0,0.0,0.0,4.0,0.0
217,1e-08,NPY2R,8.0,0.0,0.0,0.0,8.0,1.0
218,1e-08,CHRM3,28.0,18.0,5.0,0.0,10.0,39.0
219,1e-07,AVPR1A,10.0,1.0,1.0,1.0,9.0,2.0
220,1e-07,PTGS2,13.0,13.0,1.0,0.0,0.0,22.0
221,1e-07,HTR3A,7.0,5.0,0.0,0.0,2.0,13.0
222,1e-07,CHRM2,22.0,16.0,5.0,0.0,6.0,44.0
223,1e-07,DRD3,17.0,12.0,3.0,0.0,5.0,52.0
224,1e-07,AR,18.0,12.0,4.0,1.0,6.0,26.0
225,1e-07,DRD2,18.0,13.0,2.0,0.0,5.0,58.0
226,1e-07,SCN5A,3.0,2.0,1.0,0.0,1.0,18.0
227,1e-07,OPRK1,39.0,14.0,8.0,1.0,25.0,25.0
228,1e-07,ADRA1A,12.0,10.0,0.0,0.0,2.0,58.0
229,1e-07,CNR1,2.0,1.0,0.0,0.0,1.0,4.0
230,1e-07,ESR2,18.0,9.0,0.0,0.0,9.0,2.0
231,1e-07,GIPR,3.0,0.0,0.0,0.0,3.0,0.0
232,1e-07,HTR2A,12.0,11.0,0.0,0.0,1.0,76.0
233,1e-07,ADRB2,30.0,24.0,9.0,1.0,6.0,12.0
234,1e-07,TACR1,20.0,1.0,0.0,0.0,19.0,7.0
235,1e-07,SLC6A3,44.0,15.0,4.0,1.0,29.0,53.0
236,1e-07,ADORA2A,4.0,1.0,1.0,0.0,3.0,22.0
237,1e-07,GABRA1,23.0,15.0,5.0,0.0,8.0,26.0
238,1e-07,EDNRB,11.0,1.0,0.0,0.0,10.0,1.0
239,1e-07,HRH1,25.0,24.0,1.0,0.0,1.0,37.0
240,1e-07,EDNRA,9.0,2.0,0.0,0.0,7.0,4.0
241,1e-07,ADRA2A,27.0,24.0,7.0,1.0,3.0,66.0
242,1e-07,HTR1A,12.0,7.0,1.0,1.0,5.0,56.0
243,1e-07,DRD1,17.0,12.0,3.0,0.0,5.0,47.0
244,1e-07,GHSR,8.0,0.0,0.0,0.0,8.0,0.0
245,1e-07,CACNA1C,12.0,10.0,4.0,0.0,2.0,2.0
246,1e-07,BDKRB2,0.0,0.0,0.0,0.0,0.0,2.0
247,1e-07,PDE4D,3.0,2.0,1.0,0.0,1.0,9.0
248,1e-07,GRIN3A,19.0,6.0,5.0,0.0,13.0,7.0
249,1e-07,OPRM1,43.0,12.0,7.0,0.0,31.0,26.0
250,1e-07,NR1I2,23.0,1.0,0.0,0.0,22.0,7.0
251,1e-07,CCKBR,36.0,3.0,2.0,1.0,33.0,2.0
252,1e-07,HTR2C,11.0,8.0,1.0,0.0,3.0,76.0
253,1e-07,SLC6A2,40.0,20.0,9.0,3.0,20.0,54.0
254,1e-07,OPRD1,38.0,8.0,4.0,1.0,30.0,17.0
255,1e-07,CHRM1,32.0,20.0,10.0,0.0,12.0,48.0
256,1e-07,SLC6A4,33.0,19.0,8.0,1.0,14.0,59.0
257,1e-07,NTSR1,36.0,0.0,0.0,0.0,36.0,0.0
258,1e-07,MC4R,26.0,0.0,0.0,0.0,26.0,6.0
259,1e-07,HRH3,9.0,3.0,2.0,0.0,6.0,5.0
260,1e-07,AGTR1,7.0,7.0,1.0,0.0,0.0,0.0
261,1e-07,ADRB1,25.0,20.0,7.0,0.0,5.0,20.0
262,1e-07,NR3C1,20.0,20.0,9.0,2.0,0.0,16.0
263,1e-07,ADRA2B,33.0,22.0,6.0,2.0,11.0,59.0
264,1e-07,MC3R,27.0,0.0,0.0,0.0,27.0,5.0
265,1e-07,MAOA,7.0,7.0,2.0,0.0,0.0,11.0
266,1e-07,CCKAR,29.0,2.0,1.0,0.0,27.0,2.0
267,1e-07,ADRA2C,26.0,22.0,7.0,1.0,4.0,49.0
268,1e-07,KCNH2,7.0,7.0,0.0,0.0,0.0,75.0
269,1e-07,HRH2,15.0,9.0,0.0,0.0,6.0,30.0
270,1e-07,ESR1,17.0,13.0,4.0,0.0,4.0,7.0
271,1e-07,ADORA3,11.0,1.0,1.0,0.0,10.0,14.0
272,1e-07,CRHR1,0.0,0.0,0.0,0.0,0.0,0.0
273,1e-07,ADORA1,13.0,5.0,4.0,0.0,8.0,15.0
274,1e-07,PTGS1,17.0,15.0,1.0,0.0,2.0,27.0
275,1e-07,BDKRB1,1.0,0.0,0.0,0.0,1.0,0.0
276,1e-07,HTR2B,26.0,23.0,0.0,0.0,3.0,58.0
277,1e-07,SLC29A1,11.0,2.0,0.0,0.0,9.0,1.0
278,1e-07,TBXA2R,3.0,0.0,0.0,0.0,3.0,0.0
279,1e-07,DRD4,24.0,14.0,2.0,0.0,10.0,28.0
280,1e-07,MLN,26.0,1.0,0.0,0.0,25.0,0.0
281,1e-07,PDE3A,5.0,3.0,0.0,0.0,2.0,6.0
282,1e-07,ADRB3,21.0,13.0,3.0,0.0,8.0,10.0
283,1e-07,AVPR2,6.0,1.0,0.0,0.0,5.0,1.0
284,1e-07,GPR109A,1.0,1.0,0.0,0.0,0.0,0.0
285,1e-07,PGR,7.0,6.0,3.0,0.0,1.0,12.0
286,1e-07,CACNA1B,36.0,2.0,2.0,0.0,34.0,1.0
287,1e-07,NPY1R,5.0,0.0,0.0,0.0,5.0,0.0
288,1e-07,CHRNA10,7.0,3.0,1.0,0.0,4.0,12.0
289,1e-07,CRHR2,4.0,0.0,0.0,0.0,4.0,0.0
290,1e-07,NPY2R,10.0,0.0,0.0,0.0,10.0,1.0
291,1e-07,CHRM3,28.0,18.0,5.0,0.0,10.0,39.0
292,1e-06,AVPR1A,12.0,1.0,1.0,1.0,11.0,2.0
293,1e-06,PTGS2,13.0,13.0,1.0,0.0,0.0,22.0
294,1e-06,HTR3A,8.0,5.0,0.0,0.0,3.0,13.0
295,1e-06,CHRM2,23.0,17.0,6.0,0.0,6.0,43.0
296,1e-06,DRD3,31.0,26.0,3.0,0.0,5.0,38.0
297,1e-06,AR,19.0,12.0,4.0,1.0,7.0,26.0
298,1e-06,DRD2,22.0,17.0,2.0,0.0,5.0,54.0
299,1e-06,SCN5A,3.0,2.0,1.0,0.0,1.0,18.0
300,1e-06,OPRK1,43.0,14.0,8.0,1.0,29.0,25.0
301,1e-06,ADRA1A,12.0,10.0,0.0,0.0,2.0,58.0
302,1e-06,CNR1,3.0,1.0,0.0,0.0,2.0,4.0
303,1e-06,ESR2,18.0,9.0,0.0,0.0,9.0,2.0
304,1e-06,GIPR,4.0,0.0,0.0,0.0,4.0,0.0
305,1e-06,HTR2A,12.0,11.0,0.0,0.0,1.0,76.0
306,1e-06,ADRB2,30.0,24.0,9.0,1.0,6.0,12.0
307,1e-06,TACR1,24.0,1.0,0.0,0.0,23.0,7.0
308,1e-06,SLC6A3,47.0,16.0,4.0,1.0,31.0,52.0
309,1e-06,ADORA2A,6.0,2.0,2.0,0.0,4.0,21.0
310,1e-06,GABRA1,29.0,18.0,6.0,0.0,11.0,23.0
311,1e-06,EDNRB,11.0,1.0,0.0,0.0,10.0,1.0
312,1e-06,HRH1,27.0,25.0,1.0,0.0,2.0,36.0
313,1e-06,EDNRA,9.0,2.0,0.0,0.0,7.0,4.0
314,1e-06,ADRA2A,32.0,27.0,7.0,1.0,5.0,63.0
315,1e-06,HTR1A,14.0,9.0,3.0,1.0,5.0,54.0
316,1e-06,DRD1,17.0,12.0,3.0,0.0,5.0,47.0
317,1e-06,GHSR,8.0,0.0,0.0,0.0,8.0,0.0
318,1e-06,CACNA1C,12.0,10.0,4.0,0.0,2.0,2.0
319,1e-06,BDKRB2,0.0,0.0,0.0,0.0,0.0,2.0
320,1e-06,PDE4D,5.0,2.0,1.0,0.0,3.0,9.0
321,1e-06,GRIN3A,19.0,6.0,5.0,0.0,13.0,7.0
322,1e-06,OPRM1,50.0,12.0,7.0,0.0,38.0,26.0
323,1e-06,NR1I2,23.0,1.0,0.0,0.0,22.0,7.0
324,1e-06,CCKBR,37.0,3.0,2.0,1.0,34.0,2.0
325,1e-06,HTR2C,12.0,9.0,1.0,0.0,3.0,75.0
326,1e-06,SLC6A2,43.0,20.0,9.0,3.0,23.0,54.0
327,1e-06,OPRD1,40.0,8.0,4.0,1.0,32.0,17.0
328,1e-06,CHRM1,32.0,20.0,10.0,0.0,12.0,48.0
329,1e-06,SLC6A4,34.0,19.0,8.0,1.0,15.0,59.0
330,1e-06,NTSR1,38.0,0.0,0.0,0.0,38.0,0.0
331,1e-06,MC4R,28.0,0.0,0.0,0.0,28.0,6.0
332,1e-06,HRH3,10.0,3.0,2.0,0.0,7.0,5.0
333,1e-06,AGTR1,7.0,7.0,1.0,0.0,0.0,0.0
334,1e-06,ADRB1,30.0,23.0,7.0,0.0,7.0,17.0
335,1e-06,NR3C1,26.0,25.0,12.0,2.0,1.0,11.0
336,1e-06,ADRA2B,35.0,22.0,6.0,2.0,13.0,59.0
337,1e-06,MC3R,28.0,0.0,0.0,0.0,28.0,5.0
338,1e-06,MAOA,7.0,7.0,2.0,0.0,0.0,11.0
339,1e-06,CCKAR,30.0,2.0,1.0,0.0,28.0,2.0
340,1e-06,ADRA2C,31.0,24.0,8.0,1.0,7.0,47.0
341,1e-06,KCNH2,8.0,8.0,0.0,0.0,0.0,74.0
342,1e-06,HRH2,17.0,9.0,0.0,0.0,8.0,30.0
343,1e-06,ESR1,18.0,13.0,4.0,0.0,5.0,7.0
344,1e-06,ADORA3,11.0,1.0,1.0,0.0,10.0,14.0
345,1e-06,CRHR1,0.0,0.0,0.0,0.0,0.0,0.0
346,1e-06,ADORA1,13.0,5.0,4.0,0.0,8.0,15.0
347,1e-06,PTGS1,18.0,15.0,1.0,0.0,3.0,27.0
348,1e-06,BDKRB1,2.0,0.0,0.0,0.0,2.0,0.0
349,1e-06,HTR2B,27.0,23.0,0.0,0.0,4.0,58.0
350,1e-06,SLC29A1,12.0,2.0,0.0,0.0,10.0,1.0
351,1e-06,TBXA2R,3.0,0.0,0.0,0.0,3.0,0.0
352,1e-06,DRD4,25.0,14.0,2.0,0.0,11.0,28.0
353,1e-06,MLN,28.0,1.0,0.0,0.0,27.0,0.0
354,1e-06,PDE3A,5.0,3.0,0.0,0.0,2.0,6.0
355,1e-06,ADRB3,23.0,13.0,3.0,0.0,10.0,10.0
356,1e-06,AVPR2,7.0,1.0,0.0,0.0,6.0,1.0
357,1e-06,GPR109A,2.0,1.0,0.0,0.0,1.0,0.0
358,1e-06,PGR,7.0,6.0,3.0,0.0,1.0,12.0
359,1e-06,CACNA1B,38.0,2.0,2.0,0.0,36.0,1.0
360,1e-06,NPY1R,9.0,0.0,0.0,0.0,9.0,0.0
361,1e-06,CHRNA10,8.0,3.0,1.0,0.0,5.0,12.0
362,1e-06,CRHR2,4.0,0.0,0.0,0.0,4.0,0.0
363,1e-06,NPY2R,12.0,0.0,0.0,0.0,12.0,1.0
364,1e-06,CHRM3,33.0,20.0,6.0,0.0,13.0,37.0
365,1e-05,AVPR1A,13.0,1.0,1.0,1.0,12.0,2.0
366,1e-05,PTGS2,13.0,13.0,1.0,0.0,0.0,22.0
367,1e-05,HTR3A,15.0,12.0,2.0,0.0,3.0,6.0
368,1e-05,CHRM2,25.0,17.0,6.0,0.0,8.0,43.0
369,1e-05,DRD3,33.0,27.0,3.0,0.0,6.0,37.0
370,1e-05,AR,20.0,12.0,4.0,1.0,8.0,26.0
371,1e-05,DRD2,24.0,18.0,2.0,0.0,6.0,53.0
372,1e-05,SCN5A,3.0,2.0,1.0,0.0,1.0,18.0
373,1e-05,OPRK1,46.0,14.0,8.0,1.0,32.0,25.0
374,1e-05,ADRA1A,12.0,10.0,0.0,0.0,2.0,58.0
375,1e-05,CNR1,3.0,1.0,0.0,0.0,2.0,4.0
376,1e-05,ESR2,18.0,9.0,0.0,0.0,9.0,2.0
377,1e-05,GIPR,4.0,0.0,0.0,0.0,4.0,0.0
378,1e-05,HTR2A,18.0,17.0,1.0,0.0,1.0,70.0
379,1e-05,ADRB2,31.0,24.0,9.0,1.0,7.0,12.0
380,1e-05,TACR1,31.0,1.0,0.0,0.0,30.0,7.0
381,1e-05,SLC6A3,50.0,17.0,5.0,1.0,33.0,51.0
382,1e-05,ADORA2A,7.0,3.0,3.0,0.0,4.0,20.0
383,1e-05,GABRA1,30.0,19.0,7.0,0.0,11.0,22.0
384,1e-05,EDNRB,14.0,1.0,0.0,0.0,13.0,1.0
385,1e-05,HRH1,28.0,25.0,1.0,0.0,3.0,36.0
386,1e-05,EDNRA,11.0,2.0,0.0,0.0,9.0,4.0
387,1e-05,ADRA2A,37.0,29.0,8.0,1.0,8.0,61.0
388,1e-05,HTR1A,20.0,13.0,3.0,1.0,7.0,50.0
389,1e-05,DRD1,40.0,33.0,7.0,0.0,7.0,26.0
390,1e-05,GHSR,8.0,0.0,0.0,0.0,8.0,0.0
391,1e-05,CACNA1C,12.0,10.0,4.0,0.0,2.0,2.0
392,1e-05,BDKRB2,1.0,0.0,0.0,0.0,1.0,2.0
393,1e-05,PDE4D,5.0,2.0,1.0,0.0,3.0,9.0
394,1e-05,GRIN3A,22.0,7.0,5.0,0.0,15.0,6.0
395,1e-05,OPRM1,51.0,13.0,8.0,1.0,38.0,25.0
396,1e-05,NR1I2,26.0,1.0,0.0,0.0,25.0,7.0
397,1e-05,CCKBR,40.0,4.0,2.0,1.0,36.0,1.0
398,1e-05,HTR2C,21.0,18.0,1.0,0.0,3.0,66.0
399,1e-05,SLC6A2,53.0,26.0,10.0,3.0,27.0,48.0
400,1e-05,OPRD1,42.0,8.0,4.0,1.0,34.0,17.0
401,1e-05,CHRM1,35.0,21.0,10.0,0.0,14.0,47.0
402,1e-05,SLC6A4,38.0,21.0,8.0,1.0,17.0,57.0
403,1e-05,NTSR1,53.0,0.0,0.0,0.0,53.0,0.0
404,1e-05,MC4R,31.0,0.0,0.0,0.0,31.0,6.0
405,1e-05,HRH3,10.0,3.0,2.0,0.0,7.0,5.0
406,1e-05,AGTR1,7.0,7.0,1.0,0.0,0.0,0.0
407,1e-05,ADRB1,31.0,23.0,7.0,0.0,8.0,17.0
408,1e-05,NR3C1,26.0,25.0,12.0,2.0,1.0,11.0
409,1e-05,ADRA2B,70.0,55.0,7.0,2.0,15.0,26.0
410,1e-05,MC3R,32.0,0.0,0.0,0.0,32.0,5.0
411,1e-05,MAOA,7.0,7.0,2.0,0.0,0.0,11.0
412,1e-05,CCKAR,31.0,2.0,1.0,0.0,29.0,2.0
413,1e-05,ADRA2C,33.0,24.0,8.0,1.0,9.0,47.0
414,1e-05,KCNH2,8.0,8.0,0.0,0.0,0.0,74.0
415,1e-05,HRH2,19.0,11.0,2.0,1.0,8.0,28.0
416,1e-05,ESR1,20.0,14.0,5.0,0.0,6.0,6.0
417,1e-05,ADORA3,13.0,1.0,1.0,0.0,12.0,14.0
418,1e-05,CRHR1,0.0,0.0,0.0,0.0,0.0,0.0
419,1e-05,ADORA1,13.0,5.0,4.0,0.0,8.0,15.0
420,1e-05,PTGS1,19.0,16.0,2.0,0.0,3.0,26.0
421,1e-05,BDKRB1,3.0,0.0,0.0,0.0,3.0,0.0
422,1e-05,HTR2B,27.0,23.0,0.0,0.0,4.0,58.0
423,1e-05,SLC29A1,13.0,2.0,0.0,0.0,11.0,1.0
424,1e-05,TBXA2R,3.0,0.0,0.0,0.0,3.0,0.0
425,1e-05,DRD4,28.0,14.0,2.0,0.0,14.0,28.0
426,1e-05,MLN,31.0,1.0,0.0,0.0,30.0,0.0
427,1e-05,PDE3A,5.0,3.0,0.0,0.0,2.0,6.0
428,1e-05,ADRB3,25.0,13.0,3.0,0.0,12.0,10.0
429,1e-05,AVPR2,8.0,1.0,0.0,0.0,7.0,1.0
430,1e-05,GPR109A,2.0,1.0,0.0,0.0,1.0,0.0
431,1e-05,PGR,7.0,6.0,3.0,0.0,1.0,12.0
432,1e-05,CACNA1B,44.0,2.0,2.0,0.0,42.0,1.0
433,1e-05,NPY1R,12.0,0.0,0.0,0.0,12.0,0.0
434,1e-05,CHRNA10,8.0,3.0,1.0,0.0,5.0,12.0
435,1e-05,CRHR2,4.0,0.0,0.0,0.0,4.0,0.0
436,1e-05,NPY2R,14.0,0.0,0.0,0.0,14.0,1.0
437,1e-05,CHRM3,35.0,20.0,6.0,0.0,15.0,37.0
438,0.0001,AVPR1A,14.0,1.0,1.0,1.0,13.0,2.0
439,0.0001,PTGS2,13.0,13.0,1.0,0.0,0.0,22.0
440,0.0001,HTR3A,17.0,12.0,2.0,0.0,5.0,6.0
441,0.0001,CHRM2,27.0,18.0,6.0,0.0,9.0,42.0
442,0.0001,DRD3,35.0,28.0,3.0,0.0,7.0,36.0
443,0.0001,AR,25.0,14.0,6.0,2.0,11.0,24.0
444,0.0001,DRD2,34.0,24.0,2.0,0.0,10.0,47.0
445,0.0001,SCN5A,4.0,2.0,1.0,0.0,2.0,18.0
446,0.0001,OPRK1,47.0,14.0,8.0,1.0,33.0,25.0
447,0.0001,ADRA1A,17.0,14.0,0.0,0.0,3.0,54.0
448,0.0001,CNR1,3.0,1.0,0.0,0.0,2.0,4.0
449,0.0001,ESR2,19.0,9.0,0.0,0.0,10.0,2.0
450,0.0001,GIPR,4.0,0.0,0.0,0.0,4.0,0.0
451,0.0001,HTR2A,26.0,24.0,2.0,0.0,2.0,63.0
452,0.0001,ADRB2,35.0,26.0,10.0,1.0,9.0,10.0
453,0.0001,TACR1,35.0,2.0,1.0,0.0,33.0,6.0
454,0.0001,SLC6A3,56.0,22.0,6.0,1.0,34.0,46.0
455,0.0001,ADORA2A,8.0,4.0,3.0,0.0,4.0,19.0
456,0.0001,GABRA1,31.0,19.0,7.0,0.0,12.0,22.0
457,0.0001,EDNRB,15.0,1.0,0.0,0.0,14.0,1.0
458,0.0001,HRH1,51.0,47.0,2.0,1.0,4.0,14.0
459,0.0001,EDNRA,16.0,2.0,0.0,0.0,14.0,4.0
460,0.0001,ADRA2A,39.0,29.0,8.0,1.0,10.0,61.0
461,0.0001,HTR1A,25.0,17.0,3.0,1.0,8.0,46.0
462,0.0001,DRD1,44.0,33.0,7.0,0.0,11.0,26.0
463,0.0001,GHSR,12.0,0.0,0.0,0.0,12.0,0.0
464,0.0001,CACNA1C,13.0,10.0,4.0,0.0,3.0,2.0
465,0.0001,BDKRB2,2.0,0.0,0.0,0.0,2.0,2.0
466,0.0001,PDE4D,5.0,2.0,1.0,0.0,3.0,9.0
467,0.0001,GRIN3A,25.0,7.0,5.0,0.0,18.0,6.0
468,0.0001,OPRM1,53.0,13.0,8.0,1.0,40.0,25.0
469,0.0001,NR1I2,27.0,1.0,0.0,0.0,26.0,7.0
470,0.0001,CCKBR,40.0,4.0,2.0,1.0,36.0,1.0
471,0.0001,HTR2C,24.0,20.0,1.0,0.0,4.0,64.0
472,0.0001,SLC6A2,56.0,26.0,10.0,3.0,30.0,48.0
473,0.0001,OPRD1,48.0,8.0,4.0,1.0,40.0,17.0
474,0.0001,CHRM1,36.0,21.0,10.0,0.0,15.0,47.0
475,0.0001,SLC6A4,41.0,21.0,8.0,1.0,20.0,57.0
476,0.0001,NTSR1,68.0,0.0,0.0,0.0,68.0,0.0
477,0.0001,MC4R,34.0,0.0,0.0,0.0,34.0,6.0
478,0.0001,HRH3,11.0,3.0,2.0,0.0,8.0,5.0
479,0.0001,AGTR1,8.0,7.0,1.0,0.0,1.0,0.0
480,0.0001,ADRB1,31.0,23.0,7.0,0.0,8.0,17.0
481,0.0001,NR3C1,27.0,26.0,13.0,2.0,1.0,10.0
482,0.0001,ADRA2B,75.0,55.0,7.0,2.0,20.0,26.0
483,0.0001,MC3R,39.0,0.0,0.0,0.0,39.0,5.0
484,0.0001,MAOA,7.0,7.0,2.0,0.0,0.0,11.0
485,0.0001,CCKAR,34.0,2.0,1.0,0.0,32.0,2.0
486,0.0001,ADRA2C,72.0,59.0,9.0,1.0,13.0,12.0
487,0.0001,KCNH2,11.0,9.0,1.0,0.0,2.0,73.0
488,0.0001,HRH2,20.0,11.0,2.0,1.0,9.0,28.0
489,0.0001,ESR1,21.0,15.0,6.0,0.0,6.0,5.0
490,0.0001,ADORA3,16.0,1.0,1.0,0.0,15.0,14.0
491,0.0001,CRHR1,0.0,0.0,0.0,0.0,0.0,0.0
492,0.0001,ADORA1,13.0,5.0,4.0,0.0,8.0,15.0
493,0.0001,PTGS1,19.0,16.0,2.0,0.0,3.0,26.0
494,0.0001,BDKRB1,5.0,0.0,0.0,0.0,5.0,0.0
495,0.0001,HTR2B,28.0,24.0,0.0,0.0,4.0,57.0
496,0.0001,SLC29A1,13.0,2.0,0.0,0.0,11.0,1.0
497,0.0001,TBXA2R,4.0,0.0,0.0,0.0,4.0,0.0
498,0.0001,DRD4,29.0,14.0,2.0,0.0,15.0,28.0
499,0.0001,MLN,37.0,1.0,0.0,0.0,36.0,0.0
500,0.0001,PDE3A,5.0,3.0,0.0,0.0,2.0,6.0
501,0.0001,ADRB3,28.0,14.0,3.0,0.0,14.0,9.0
502,0.0001,AVPR2,10.0,1.0,0.0,0.0,9.0,1.0
503,0.0001,GPR109A,2.0,1.0,0.0,0.0,1.0,0.0
504,0.0001,PGR,12.0,9.0,4.0,0.0,3.0,9.0
505,0.0001,CACNA1B,47.0,2.0,2.0,0.0,45.0,1.0
506,0.0001,NPY1R,14.0,0.0,0.0,0.0,14.0,0.0
507,0.0001,CHRNA10,8.0,3.0,1.0,0.0,5.0,12.0
508,0.0001,CRHR2,4.0,0.0,0.0,0.0,4.0,0.0
509,0.0001,NPY2R,18.0,0.0,0.0,0.0,18.0,1.0
510,0.0001,CHRM3,37.0,20.0,6.0,0.0,17.0,37.0
511,0.001,AVPR1A,15.0,1.0,1.0,1.0,14.0,2.0
512,0.001,PTGS2,14.0,13.0,1.0,0.0,1.0,22.0
513,0.001,HTR3A,19.0,12.0,2.0,0.0,7.0,6.0
514,0.001,CHRM2,30.0,19.0,7.0,0.0,11.0,41.0
515,0.001,DRD3,37.0,28.0,3.0,0.0,9.0,36.0
516,0.001,AR,38.0,22.0,7.0,3.0,16.0,16.0
517,0.001,DRD2,36.0,26.0,3.0,0.0,10.0,45.0
518,0.001,SCN5A,7.0,2.0,1.0,0.0,5.0,18.0
519,0.001,OPRK1,54.0,15.0,8.0,1.0,39.0,24.0
520,0.001,ADRA1A,19.0,14.0,0.0,0.0,5.0,54.0
521,0.001,CNR1,6.0,1.0,0.0,0.0,5.0,4.0
522,0.001,ESR2,22.0,9.0,0.0,0.0,13.0,2.0
523,0.001,GIPR,6.0,0.0,0.0,0.0,6.0,0.0
524,0.001,HTR2A,27.0,25.0,2.0,0.0,2.0,62.0
525,0.001,ADRB2,39.0,27.0,11.0,1.0,12.0,9.0
526,0.001,TACR1,47.0,2.0,1.0,0.0,45.0,6.0
527,0.001,SLC6A3,62.0,24.0,8.0,1.0,38.0,44.0
528,0.001,ADORA2A,10.0,5.0,3.0,0.0,5.0,18.0
529,0.001,GABRA1,35.0,19.0,7.0,0.0,16.0,22.0
530,0.001,EDNRB,20.0,1.0,0.0,0.0,19.0,1.0
531,0.001,HRH1,55.0,50.0,5.0,1.0,5.0,11.0
532,0.001,EDNRA,19.0,3.0,1.0,1.0,16.0,3.0
533,0.001,ADRA2A,76.0,59.0,8.0,1.0,17.0,31.0
534,0.001,HTR1A,27.0,17.0,3.0,1.0,10.0,46.0
535,0.001,DRD1,47.0,33.0,7.0,0.0,14.0,26.0
536,0.001,GHSR,13.0,0.0,0.0,0.0,13.0,0.0
537,0.001,CACNA1C,14.0,10.0,4.0,0.0,4.0,2.0
538,0.001,BDKRB2,5.0,0.0,0.0,0.0,5.0,2.0
539,0.001,PDE4D,13.0,3.0,2.0,0.0,10.0,8.0
540,0.001,GRIN3A,27.0,7.0,5.0,0.0,20.0,6.0
541,0.001,OPRM1,57.0,14.0,8.0,1.0,43.0,24.0
542,0.001,NR1I2,27.0,1.0,0.0,0.0,26.0,7.0
543,0.001,CCKBR,41.0,4.0,2.0,1.0,37.0,1.0
544,0.001,HTR2C,28.0,22.0,3.0,0.0,6.0,62.0
545,0.001,SLC6A2,62.0,28.0,12.0,3.0,34.0,46.0
546,0.001,OPRD1,51.0,8.0,4.0,1.0,43.0,17.0
547,0.001,CHRM1,66.0,47.0,12.0,0.0,19.0,21.0
548,0.001,SLC6A4,44.0,21.0,8.0,1.0,23.0,57.0
549,0.001,NTSR1,84.0,0.0,0.0,0.0,84.0,0.0
550,0.001,MC4R,37.0,0.0,0.0,0.0,37.0,6.0
551,0.001,HRH3,15.0,3.0,2.0,0.0,12.0,5.0
552,0.001,AGTR1,10.0,7.0,1.0,0.0,3.0,0.0
553,0.001,ADRB1,34.0,23.0,7.0,0.0,11.0,17.0
554,0.001,NR3C1,28.0,26.0,13.0,2.0,2.0,10.0
555,0.001,ADRA2B,78.0,56.0,8.0,2.0,22.0,25.0
556,0.001,MC3R,47.0,0.0,0.0,0.0,47.0,5.0
557,0.001,MAOA,7.0,7.0,2.0,0.0,0.0,11.0
558,0.001,CCKAR,40.0,2.0,1.0,0.0,38.0,2.0
559,0.001,ADRA2C,77.0,59.0,9.0,1.0,18.0,12.0
560,0.001,KCNH2,36.0,33.0,2.0,0.0,3.0,49.0
561,0.001,HRH2,21.0,12.0,3.0,1.0,9.0,27.0
562,0.001,ESR1,21.0,15.0,6.0,0.0,6.0,5.0
563,0.001,ADORA3,18.0,1.0,1.0,0.0,17.0,14.0
564,0.001,CRHR1,0.0,0.0,0.0,0.0,0.0,0.0
565,0.001,ADORA1,14.0,5.0,4.0,0.0,9.0,15.0
566,0.001,PTGS1,19.0,16.0,2.0,0.0,3.0,26.0
567,0.001,BDKRB1,8.0,0.0,0.0,0.0,8.0,0.0
568,0.001,HTR2B,33.0,26.0,0.0,0.0,7.0,55.0
569,0.001,SLC29A1,14.0,2.0,0.0,0.0,12.0,1.0
570,0.001,TBXA2R,4.0,0.0,0.0,0.0,4.0,0.0
571,0.001,DRD4,34.0,15.0,3.0,1.0,19.0,27.0
572,0.001,MLN,43.0,1.0,0.0,0.0,42.0,0.0
573,0.001,PDE3A,7.0,3.0,0.0,0.0,4.0,6.0
574,0.001,ADRB3,33.0,14.0,3.0,0.0,19.0,9.0
575,0.001,AVPR2,11.0,1.0,0.0,0.0,10.0,1.0
576,0.001,GPR109A,2.0,1.0,0.0,0.0,1.0,0.0
577,0.001,PGR,16.0,10.0,5.0,0.0,6.0,8.0
578,0.001,CACNA1B,53.0,2.0,2.0,0.0,51.0,1.0
579,0.001,NPY1R,18.0,0.0,0.0,0.0,18.0,0.0
580,0.001,CHRNA10,10.0,3.0,1.0,0.0,7.0,12.0
581,0.001,CRHR2,5.0,0.0,0.0,0.0,5.0,0.0
582,0.001,NPY2R,22.0,0.0,0.0,0.0,22.0,1.0
583,0.001,CHRM3,40.0,22.0,7.0,0.0,18.0,35.0
584,0.01,AVPR1A,18.0,1.0,1.0,1.0,17.0,2.0
585,0.01,PTGS2,14.0,13.0,1.0,0.0,1.0,22.0
586,0.01,HTR3A,19.0,12.0,2.0,0.0,7.0,6.0
587,0.01,CHRM2,54.0,38.0,10.0,1.0,16.0,22.0
588,0.01,DRD3,44.0,30.0,3.0,0.0,14.0,34.0
589,0.01,AR,42.0,23.0,8.0,3.0,19.0,15.0
590,0.01,DRD2,40.0,29.0,3.0,0.0,11.0,42.0
591,0.01,SCN5A,11.0,3.0,2.0,0.0,8.0,17.0
592,0.01,OPRK1,63.0,17.0,10.0,3.0,46.0,22.0
593,0.01,ADRA1A,23.0,15.0,0.0,0.0,8.0,53.0
594,0.01,CNR1,8.0,1.0,0.0,0.0,7.0,4.0
595,0.01,ESR2,24.0,9.0,0.0,0.0,15.0,2.0
596,0.01,GIPR,18.0,0.0,0.0,0.0,18.0,0.0
597,0.01,HTR2A,32.0,27.0,2.0,0.0,5.0,60.0
598,0.01,ADRB2,47.0,28.0,12.0,1.0,19.0,8.0
599,0.01,TACR1,54.0,2.0,1.0,0.0,52.0,6.0
600,0.01,SLC6A3,65.0,24.0,8.0,1.0,41.0,44.0
601,0.01,ADORA2A,12.0,6.0,4.0,0.0,6.0,17.0
602,0.01,GABRA1,35.0,19.0,7.0,0.0,16.0,22.0
603,0.01,EDNRB,24.0,1.0,0.0,0.0,23.0,1.0
604,0.01,HRH1,58.0,50.0,5.0,1.0,8.0,11.0
605,0.01,EDNRA,22.0,3.0,1.0,1.0,19.0,3.0
606,0.01,ADRA2A,79.0,60.0,9.0,1.0,19.0,30.0
607,0.01,HTR1A,31.0,18.0,3.0,1.0,13.0,45.0
608,0.01,DRD1,55.0,33.0,7.0,0.0,22.0,26.0
609,0.01,GHSR,13.0,0.0,0.0,0.0,13.0,0.0
610,0.01,CACNA1C,14.0,10.0,4.0,0.0,4.0,2.0
611,0.01,BDKRB2,9.0,0.0,0.0,0.0,9.0,2.0
612,0.01,PDE4D,24.0,4.0,3.0,0.0,20.0,7.0
613,0.01,GRIN3A,33.0,7.0,5.0,0.0,26.0,6.0
614,0.01,OPRM1,69.0,16.0,9.0,2.0,53.0,22.0
615,0.01,NR1I2,29.0,1.0,0.0,0.0,28.0,7.0
616,0.01,CCKBR,45.0,4.0,2.0,1.0,41.0,1.0
617,0.01,HTR2C,29.0,23.0,4.0,0.0,6.0,61.0
618,0.01,SLC6A2,65.0,28.0,12.0,3.0,37.0,46.0
619,0.01,OPRD1,58.0,8.0,4.0,1.0,50.0,17.0
620,0.01,CHRM1,72.0,49.0,14.0,0.0,23.0,19.0
621,0.01,SLC6A4,61.0,25.0,8.0,1.0,36.0,53.0
622,0.01,NTSR1,96.0,0.0,0.0,0.0,96.0,0.0
623,0.01,MC4R,42.0,0.0,0.0,0.0,42.0,6.0
624,0.01,HRH3,19.0,3.0,2.0,0.0,16.0,5.0
625,0.01,AGTR1,10.0,7.0,1.0,0.0,3.0,0.0
626,0.01,ADRB1,36.0,23.0,7.0,0.0,13.0,17.0
627,0.01,NR3C1,32.0,30.0,14.0,2.0,2.0,6.0
628,0.01,ADRA2B,84.0,57.0,9.0,2.0,27.0,24.0
629,0.01,MC3R,54.0,0.0,0.0,0.0,54.0,5.0
630,0.01,MAOA,7.0,7.0,2.0,0.0,0.0,11.0
631,0.01,CCKAR,48.0,2.0,1.0,0.0,46.0,2.0
632,0.01,ADRA2C,80.0,59.0,9.0,1.0,21.0,12.0
633,0.01,KCNH2,38.0,34.0,3.0,1.0,4.0,48.0
634,0.01,HRH2,23.0,12.0,3.0,1.0,11.0,27.0
635,0.01,ESR1,23.0,15.0,6.0,0.0,8.0,5.0
636,0.01,ADORA3,21.0,1.0,1.0,0.0,20.0,14.0
637,0.01,CRHR1,0.0,0.0,0.0,0.0,0.0,0.0
638,0.01,ADORA1,14.0,5.0,4.0,0.0,9.0,15.0
639,0.01,PTGS1,19.0,16.0,2.0,0.0,3.0,26.0
640,0.01,BDKRB1,8.0,0.0,0.0,0.0,8.0,0.0
641,0.01,HTR2B,65.0,54.0,0.0,0.0,11.0,27.0
642,0.01,SLC29A1,16.0,2.0,0.0,0.0,14.0,1.0
643,0.01,TBXA2R,4.0,0.0,0.0,0.0,4.0,0.0
644,0.01,DRD4,49.0,23.0,3.0,1.0,26.0,19.0
645,0.01,MLN,48.0,1.0,0.0,0.0,47.0,0.0
646,0.01,PDE3A,7.0,3.0,0.0,0.0,4.0,6.0
647,0.01,ADRB3,36.0,14.0,3.0,0.0,22.0,9.0
648,0.01,AVPR2,14.0,1.0,0.0,0.0,13.0,1.0
649,0.01,GPR109A,2.0,1.0,0.0,0.0,1.0,0.0
650,0.01,PGR,16.0,10.0,5.0,0.0,6.0,8.0
651,0.01,CACNA1B,56.0,2.0,2.0,0.0,54.0,1.0
652,0.01,NPY1R,20.0,0.0,0.0,0.0,20.0,0.0
653,0.01,CHRNA10,14.0,3.0,1.0,0.0,11.0,12.0
654,0.01,CRHR2,14.0,0.0,0.0,0.0,14.0,0.0
655,0.01,NPY2R,24.0,0.0,0.0,0.0,24.0,1.0
656,0.01,CHRM3,65.0,42.0,8.0,0.0,23.0,15.0
657,0.1,AVPR1A,26.0,1.0,1.0,1.0,25.0,2.0
658,0.1,PTGS2,22.0,20.0,1.0,0.0,2.0,15.0
659,0.1,HTR3A,22.0,12.0,2.0,0.0,10.0,6.0
660,0.1,CHRM2,55.0,38.0,10.0,1.0,17.0,22.0
661,0.1,DRD3,72.0,53.0,4.0,0.0,19.0,11.0
662,0.1,AR,47.0,24.0,9.0,4.0,23.0,14.0
663,0.1,DRD2,52.0,36.0,4.0,1.0,16.0,35.0
664,0.1,SCN5A,21.0,4.0,3.0,0.0,17.0,16.0
665,0.1,OPRK1,71.0,17.0,10.0,3.0,54.0,22.0
666,0.1,ADRA1A,27.0,16.0,0.0,0.0,11.0,52.0
667,0.1,CNR1,11.0,1.0,0.0,0.0,10.0,4.0
668,0.1,ESR2,26.0,9.0,0.0,0.0,17.0,2.0
669,0.1,GIPR,22.0,0.0,0.0,0.0,22.0,0.0
670,0.1,HTR2A,36.0,28.0,2.0,0.0,8.0,59.0
671,0.1,ADRB2,55.0,29.0,13.0,1.0,26.0,7.0
672,0.1,TACR1,65.0,3.0,1.0,0.0,62.0,5.0
673,0.1,SLC6A3,71.0,25.0,9.0,1.0,46.0,43.0
674,0.1,ADORA2A,14.0,6.0,4.0,0.0,8.0,17.0
675,0.1,GABRA1,38.0,22.0,7.0,0.0,16.0,19.0
676,0.1,EDNRB,29.0,1.0,0.0,0.0,28.0,1.0
677,0.1,HRH1,62.0,51.0,6.0,1.0,11.0,10.0
678,0.1,EDNRA,26.0,3.0,1.0,1.0,23.0,3.0
679,0.1,ADRA2A,85.0,60.0,9.0,1.0,25.0,30.0
680,0.1,HTR1A,41.0,24.0,3.0,1.0,17.0,39.0
681,0.1,DRD1,62.0,36.0,10.0,1.0,26.0,23.0
682,0.1,GHSR,17.0,0.0,0.0,0.0,17.0,0.0
683,0.1,CACNA1C,16.0,10.0,4.0,0.0,6.0,2.0
684,0.1,BDKRB2,11.0,0.0,0.0,0.0,11.0,2.0
685,0.1,PDE4D,26.0,4.0,3.0,0.0,22.0,7.0
686,0.1,GRIN3A,40.0,7.0,5.0,0.0,33.0,6.0
687,0.1,OPRM1,80.0,17.0,9.0,2.0,63.0,21.0
688,0.1,NR1I2,33.0,1.0,0.0,0.0,32.0,7.0
689,0.1,CCKBR,52.0,4.0,2.0,1.0,48.0,1.0
690,0.1,HTR2C,39.0,28.0,5.0,0.0,11.0,56.0
691,0.1,SLC6A2,72.0,29.0,12.0,3.0,43.0,45.0
692,0.1,OPRD1,76.0,10.0,6.0,2.0,66.0,15.0
693,0.1,CHRM1,79.0,51.0,16.0,0.0,28.0,17.0
694,0.1,SLC6A4,66.0,27.0,8.0,1.0,39.0,51.0
695,0.1,NTSR1,111.0,0.0,0.0,0.0,111.0,0.0
696,0.1,MC4R,56.0,0.0,0.0,0.0,56.0,6.0
697,0.1,HRH3,26.0,4.0,2.0,0.0,22.0,4.0
698,0.1,AGTR1,12.0,7.0,1.0,0.0,5.0,0.0
699,0.1,ADRB1,45.0,25.0,9.0,0.0,20.0,15.0
700,0.1,NR3C1,32.0,30.0,14.0,2.0,2.0,6.0
701,0.1,ADRA2B,91.0,57.0,9.0,2.0,34.0,24.0
702,0.1,MC3R,60.0,1.0,1.0,1.0,59.0,4.0
703,0.1,MAOA,11.0,7.0,2.0,0.0,4.0,11.0
704,0.1,CCKAR,52.0,2.0,1.0,0.0,50.0,2.0
705,0.1,ADRA2C,85.0,59.0,9.0,1.0,26.0,12.0
706,0.1,KCNH2,42.0,34.0,3.0,1.0,8.0,48.0
707,0.1,HRH2,30.0,13.0,4.0,2.0,17.0,26.0
708,0.1,ESR1,24.0,15.0,6.0,0.0,9.0,5.0
709,0.1,ADORA3,22.0,1.0,1.0,0.0,21.0,14.0
710,0.1,CRHR1,0.0,0.0,0.0,0.0,0.0,0.0
711,0.1,ADORA1,16.0,5.0,4.0,0.0,11.0,15.0
712,0.1,PTGS1,23.0,18.0,4.0,0.0,5.0,24.0
713,0.1,BDKRB1,10.0,0.0,0.0,0.0,10.0,0.0
714,0.1,HTR2B,73.0,54.0,0.0,0.0,19.0,27.0
715,0.1,SLC29A1,22.0,2.0,0.0,0.0,20.0,1.0
716,0.1,TBXA2R,6.0,0.0,0.0,0.0,6.0,0.0
717,0.1,DRD4,63.0,25.0,5.0,1.0,38.0,17.0
718,0.1,MLN,53.0,1.0,0.0,0.0,52.0,0.0
719,0.1,PDE3A,9.0,3.0,0.0,0.0,6.0,6.0
720,0.1,ADRB3,41.0,14.0,3.0,0.0,27.0,9.0
721,0.1,AVPR2,18.0,1.0,0.0,0.0,17.0,1.0
722,0.1,GPR109A,2.0,1.0,0.0,0.0,1.0,0.0
723,0.1,PGR,19.0,10.0,5.0,0.0,9.0,8.0
724,0.1,CACNA1B,61.0,2.0,2.0,0.0,59.0,1.0
725,0.1,NPY1R,24.0,0.0,0.0,0.0,24.0,0.0
726,0.1,CHRNA10,15.0,4.0,1.0,0.0,11.0,11.0
727,0.1,CRHR2,20.0,0.0,0.0,0.0,20.0,0.0
728,0.1,NPY2R,35.0,0.0,0.0,0.0,35.0,1.0
729,0.1,CHRM3,73.0,43.0,9.0,0.0,30.0,14.0
730,1.0,AVPR1A,31.0,1.0,1.0,1.0,30.0,2.0
731,1.0,PTGS2,22.0,20.0,1.0,0.0,2.0,15.0
732,1.0,HTR3A,27.0,12.0,2.0,0.0,15.0,6.0
733,1.0,CHRM2,68.0,39.0,11.0,1.0,29.0,21.0
734,1.0,DRD3,90.0,54.0,5.0,1.0,36.0,10.0
735,1.0,AR,52.0,24.0,9.0,4.0,28.0,14.0
736,1.0,DRD2,64.0,37.0,5.0,2.0,27.0,34.0
737,1.0,SCN5A,25.0,4.0,3.0,0.0,21.0,16.0
738,1.0,OPRK1,88.0,19.0,11.0,4.0,69.0,20.0
739,1.0,ADRA1A,54.0,35.0,4.0,0.0,19.0,33.0
740,1.0,CNR1,12.0,1.0,0.0,0.0,11.0,4.0
741,1.0,ESR2,31.0,9.0,0.0,0.0,22.0,2.0
742,1.0,GIPR,35.0,0.0,0.0,0.0,35.0,0.0
743,1.0,HTR2A,73.0,58.0,3.0,0.0,15.0,29.0
744,1.0,ADRB2,58.0,29.0,13.0,1.0,29.0,7.0
745,1.0,TACR1,76.0,3.0,1.0,0.0,73.0,5.0
746,1.0,SLC6A3,83.0,27.0,10.0,2.0,56.0,41.0
747,1.0,ADORA2A,20.0,8.0,4.0,0.0,12.0,15.0
748,1.0,GABRA1,42.0,23.0,8.0,0.0,19.0,18.0
749,1.0,EDNRB,39.0,2.0,1.0,0.0,37.0,0.0
750,1.0,HRH1,70.0,51.0,6.0,1.0,19.0,10.0
751,1.0,EDNRA,36.0,3.0,1.0,1.0,33.0,3.0
752,1.0,ADRA2A,92.0,61.0,10.0,1.0,31.0,29.0
753,1.0,HTR1A,56.0,27.0,4.0,2.0,29.0,36.0
754,1.0,DRD1,71.0,36.0,10.0,1.0,35.0,23.0
755,1.0,GHSR,21.0,0.0,0.0,0.0,21.0,0.0
756,1.0,CACNA1C,18.0,10.0,4.0,0.0,8.0,2.0
757,1.0,BDKRB2,15.0,0.0,0.0,0.0,15.0,2.0
758,1.0,PDE4D,34.0,4.0,3.0,0.0,30.0,7.0
759,1.0,GRIN3A,49.0,7.0,5.0,0.0,42.0,6.0
760,1.0,OPRM1,96.0,19.0,11.0,3.0,77.0,19.0
761,1.0,NR1I2,50.0,1.0,0.0,0.0,49.0,7.0
762,1.0,CCKBR,61.0,4.0,2.0,1.0,57.0,1.0
763,1.0,HTR2C,82.0,59.0,5.0,0.0,23.0,25.0
764,1.0,SLC6A2,101.0,44.0,14.0,3.0,57.0,30.0
765,1.0,OPRD1,93.0,10.0,6.0,2.0,83.0,15.0
766,1.0,CHRM1,86.0,51.0,16.0,0.0,35.0,17.0
767,1.0,SLC6A4,75.0,30.0,11.0,1.0,45.0,48.0
768,1.0,NTSR1,124.0,0.0,0.0,0.0,124.0,0.0
769,1.0,MC4R,72.0,1.0,1.0,1.0,71.0,5.0
770,1.0,HRH3,30.0,4.0,2.0,0.0,26.0,4.0
771,1.0,AGTR1,14.0,7.0,1.0,0.0,7.0,0.0
772,1.0,ADRB1,56.0,29.0,13.0,1.0,27.0,11.0
773,1.0,NR3C1,34.0,31.0,15.0,2.0,3.0,5.0
774,1.0,ADRA2B,95.0,57.0,9.0,2.0,38.0,24.0
775,1.0,MC3R,69.0,1.0,1.0,1.0,68.0,4.0
776,1.0,MAOA,14.0,7.0,2.0,0.0,7.0,11.0
777,1.0,CCKAR,65.0,2.0,1.0,0.0,63.0,2.0
778,1.0,ADRA2C,93.0,61.0,11.0,1.0,32.0,10.0
779,1.0,KCNH2,54.0,35.0,4.0,1.0,19.0,47.0
780,1.0,HRH2,33.0,13.0,4.0,2.0,20.0,26.0
781,1.0,ESR1,30.0,15.0,6.0,0.0,15.0,5.0
782,1.0,ADORA3,25.0,1.0,1.0,0.0,24.0,14.0
783,1.0,CRHR1,0.0,0.0,0.0,0.0,0.0,0.0
784,1.0,ADORA1,19.0,5.0,4.0,0.0,14.0,15.0
785,1.0,PTGS1,26.0,21.0,7.0,0.0,5.0,21.0
786,1.0,BDKRB1,21.0,0.0,0.0,0.0,21.0,0.0
787,1.0,HTR2B,86.0,55.0,1.0,0.0,31.0,26.0
788,1.0,SLC29A1,24.0,2.0,0.0,0.0,22.0,1.0
789,1.0,TBXA2R,8.0,0.0,0.0,0.0,8.0,0.0
790,1.0,DRD4,73.0,26.0,6.0,1.0,47.0,16.0
791,1.0,MLN,69.0,1.0,0.0,0.0,68.0,0.0
792,1.0,PDE3A,15.0,3.0,0.0,0.0,12.0,6.0
793,1.0,ADRB3,63.0,15.0,4.0,1.0,48.0,8.0
794,1.0,AVPR2,36.0,1.0,0.0,0.0,35.0,1.0
795,1.0,GPR109A,2.0,1.0,0.0,0.0,1.0,0.0
796,1.0,PGR,21.0,10.0,5.0,0.0,11.0,8.0
797,1.0,CACNA1B,68.0,2.0,2.0,0.0,66.0,1.0
798,1.0,NPY1R,35.0,0.0,0.0,0.0,35.0,0.0
799,1.0,CHRNA10,21.0,4.0,1.0,0.0,17.0,11.0
800,1.0,CRHR2,24.0,0.0,0.0,0.0,24.0,0.0
801,1.0,NPY2R,48.0,0.0,0.0,0.0,48.0,1.0
802,1.0,CHRM3,79.0,43.0,9.0,0.0,36.0,14.0
