e_value,pred,true,not trivial,low activity,false,not found
1e-10,0.0,0.0,0.0,0.0,0.0,2144.0
1e-09,4.0,0.0,0.0,0.0,4.0,2144.0
1e-08,4.0,0.0,0.0,0.0,4.0,2144.0
1e-07,61.0,0.0,0.0,0.0,61.0,2144.0
1e-06,61.0,0.0,0.0,0.0,61.0,2144.0
1e-05,69.0,0.0,0.0,0.0,69.0,2144.0
0.0001,70.0,0.0,0.0,0.0,70.0,2144.0
0.001,157.0,0.0,0.0,0.0,157.0,2144.0
0.01,253.0,0.0,0.0,0.0,253.0,2144.0
0.1,316.0,7.0,3.0,0.0,309.0,2137.0
1.0,601.0,44.0,15.0,0.0,557.0,2100.0
