e_value,pred,true,not trivial,low activity,false,not found
1e-10,183.0,116.0,32.0,2.0,67.0,2028.0
1e-09,202.0,130.0,34.0,2.0,72.0,2014.0
1e-08,222.0,141.0,35.0,2.0,81.0,2003.0
1e-07,259.0,159.0,38.0,3.0,100.0,1985.0
1e-06,296.0,178.0,42.0,3.0,118.0,1966.0
1e-05,335.0,196.0,44.0,3.0,139.0,1948.0
0.0001,401.0,238.0,51.0,3.0,163.0,1906.0
0.001,484.0,273.0,60.0,4.0,211.0,1871.0
0.01,597.0,329.0,67.0,6.0,268.0,1815.0
0.1,747.0,384.0,84.0,8.0,363.0,1760.0
1.0,971.0,468.0,102.0,9.0,503.0,1676.0
