e_value,pred,true,not trivial,low activity,false,not found
1e-10,19.0,11.0,5.0,0.0,8.0,226.0
1e-09,24.0,13.0,6.0,0.0,11.0,224.0
1e-08,27.0,14.0,7.0,0.0,13.0,223.0
1e-07,30.0,16.0,7.0,0.0,14.0,221.0
1e-06,34.0,18.0,8.0,0.0,16.0,219.0
1e-05,47.0,26.0,12.0,3.0,21.0,211.0
0.0001,62.0,29.0,14.0,3.0,33.0,208.0
0.001,76.0,32.0,14.0,3.0,44.0,205.0
0.01,101.0,38.0,17.0,4.0,63.0,199.0
0.1,123.0,41.0,19.0,4.0,82.0,196.0
1.0,173.0,46.0,20.0,4.0,127.0,191.0
