,target,target_chemblid,drug,drug_chemblid,bioactivity_type,operator,value,units
65,SLC6A4,CHEMBL228,Ambroxol,CHEMBL153479,IC50,=,3391.0,nM
66,SLC6A4,CHEMBL228,Ambroxol,CHEMBL153479,Ki,=,1802.0,nM
70,MAOA,CHEMBL1951,Amiloride,CHEMBL945,IC50,=,3909.0,nM
72,CHRM2,CHEMBL211,Amiodarone,CHEMBL633,IC50,=,5080.0,nM
73,CHRM2,CHEMBL211,Amiodarone,CHEMBL633,Ki,=,1806.0,nM
77,AR,CHEMBL3072,Amiodarone,CHEMBL633,Ki,=,28165.0,nM
78,DRD2,CHEMBL217,Amiodarone,CHEMBL633,IC50,=,19952.0,nM
79,DRD2,CHEMBL217,Amiodarone,CHEMBL633,Ki,=,6651.0,nM
80,OPRK1,CHEMBL237,Amiodarone,CHEMBL633,IC50,=,16680.0,nM
81,OPRK1,CHEMBL237,Amiodarone,CHEMBL633,Ki,=,6672.0,nM
82,HTR2A,CHEMBL224,Amiodarone,CHEMBL633,IC50,=,3590.0,nM
83,HTR2A,CHEMBL224,Amiodarone,CHEMBL633,Ki,=,1026.0,nM
84,SLC6A3,CHEMBL238,Amiodarone,CHEMBL633,IC50,=,2505.0,nM
85,SLC6A3,CHEMBL238,Amiodarone,CHEMBL633,Ki,=,1990.0,nM
86,EDNRA,CHEMBL252,Amiodarone,CHEMBL633,IC50,=,26288.0,nM
87,EDNRA,CHEMBL252,Amiodarone,CHEMBL633,Ki,=,16177.0,nM
91,DRD1,CHEMBL2056,Amiodarone,CHEMBL633,IC50,=,9142.0,nM
92,DRD1,CHEMBL2056,Amiodarone,CHEMBL633,Ki,=,4571.0,nM
96,BDKRB2,CHEMBL3157,Amiodarone,CHEMBL633,IC50,=,12966.0,nM
97,BDKRB2,CHEMBL3157,Amiodarone,CHEMBL633,Ki,=,7674.0,nM
98,OPRM1,CHEMBL233,Amiodarone,CHEMBL633,IC50,=,19037.0,nM
99,OPRM1,CHEMBL233,Amiodarone,CHEMBL633,Ki,=,7728.0,nM
102,SLC6A2,CHEMBL222,Amiodarone,CHEMBL633,IC50,=,2271.0,nM
103,SLC6A2,CHEMBL222,Amiodarone,CHEMBL633,Ki,=,2252.0,nM
104,OPRD1,CHEMBL236,Amiodarone,CHEMBL633,IC50,=,8014.0,nM
105,OPRD1,CHEMBL236,Amiodarone,CHEMBL633,Ki,=,2825.0,nM
109,SLC6A4,CHEMBL228,Amiodarone,CHEMBL633,IC50,=,2305.0,nM
110,SLC6A4,CHEMBL228,Amiodarone,CHEMBL633,Ki,=,1224.0,nM
111,MC4R,CHEMBL259,Amiodarone,CHEMBL633,IC50,=,13755.0,nM
112,MC4R,CHEMBL259,Amiodarone,CHEMBL633,Ki,=,13226.0,nM
115,ADRA2B,CHEMBL1942,Amiodarone,CHEMBL633,IC50,=,12893.0,nM
116,ADRA2B,CHEMBL1942,Amiodarone,CHEMBL633,Ki,=,5886.0,nM
117,MC3R,CHEMBL4644,Amiodarone,CHEMBL633,IC50,=,12372.0,nM
118,MC3R,CHEMBL4644,Amiodarone,CHEMBL633,Ki,=,10797.0,nM
123,HRH2,CHEMBL1941,Amiodarone,CHEMBL633,IC50,=,10555.0,nM
124,HRH2,CHEMBL1941,Amiodarone,CHEMBL633,Ki,=,10379.0,nM
127,DRD4,CHEMBL219,Amiodarone,CHEMBL633,IC50,=,17720.0,nM
128,DRD4,CHEMBL219,Amiodarone,CHEMBL633,Ki,=,6213.0,nM
142,SCN5A,CHEMBL1980,Amitriptyline,CHEMBL629,IC50,=,1600.0,nM
145,SLC6A3,CHEMBL238,Amitriptyline,CHEMBL629,Ki,=,6203.0,nM
146,SLC6A3,CHEMBL238,Amitriptyline,CHEMBL629,IC50,=,12589.25,nM
554,DRD2,CHEMBL217,Astemizole,CHEMBL296419,IC50,=,4521.0,nM
555,DRD2,CHEMBL217,Astemizole,CHEMBL296419,Ki,=,1507.0,nM
556,OPRK1,CHEMBL237,Astemizole,CHEMBL296419,IC50,=,6616.0,nM
557,OPRK1,CHEMBL237,Astemizole,CHEMBL296419,Ki,=,2646.0,nM
560,TACR1,CHEMBL249,Astemizole,CHEMBL296419,IC50,=,15793.0,nM
561,TACR1,CHEMBL249,Astemizole,CHEMBL296419,Ki,=,8615.0,nM
570,ADRA2A,CHEMBL1867,Astemizole,CHEMBL296419,IC50,=,4846.0,nM
571,ADRA2A,CHEMBL1867,Astemizole,CHEMBL296419,Ki,=,1817.0,nM
574,DRD1,CHEMBL2056,Astemizole,CHEMBL296419,IC50,=,4010.0,nM
575,DRD1,CHEMBL2056,Astemizole,CHEMBL296419,Ki,=,2005.0,nM
580,SLC6A2,CHEMBL222,Astemizole,CHEMBL296419,IC50,=,1375.0,nM
581,SLC6A2,CHEMBL222,Astemizole,CHEMBL296419,Ki,=,1364.0,nM
582,OPRD1,CHEMBL236,Astemizole,CHEMBL296419,IC50,=,12979.0,nM
583,OPRD1,CHEMBL236,Astemizole,CHEMBL296419,Ki,=,4575.0,nM
588,MC4R,CHEMBL259,Astemizole,CHEMBL296419,IC50,=,14041.0,nM
589,MC4R,CHEMBL259,Astemizole,CHEMBL296419,Ki,=,13501.0,nM
590,ADRB1,CHEMBL213,Astemizole,CHEMBL296419,IC50,=,17382.0,nM
591,ADRB1,CHEMBL213,Astemizole,CHEMBL296419,Ki,=,10037.0,nM
592,ADRA2B,CHEMBL1942,Astemizole,CHEMBL296419,IC50,=,3839.0,nM
593,ADRA2B,CHEMBL1942,Astemizole,CHEMBL296419,Ki,=,1753.0,nM
594,MC3R,CHEMBL4644,Astemizole,CHEMBL296419,IC50,=,15525.0,nM
595,MC3R,CHEMBL4644,Astemizole,CHEMBL296419,Ki,=,13549.0,nM
618,HRH2,CHEMBL1941,Astemizole,CHEMBL296419,IC50,=,1682.0,nM
619,HRH2,CHEMBL1941,Astemizole,CHEMBL296419,Ki,=,1654.0,nM
622,DRD4,CHEMBL219,Astemizole,CHEMBL296419,IC50,=,6087.0,nM
623,DRD4,CHEMBL219,Astemizole,CHEMBL296419,Ki,=,2134.0,nM
624,ADRB3,CHEMBL246,Astemizole,CHEMBL296419,IC50,=,8060.0,nM
625,ADRB3,CHEMBL246,Astemizole,CHEMBL296419,Ki,=,6045.0,nM
784,HTR2B,CHEMBL1833,Benzbromarone,CHEMBL388590,IC50,=,1804.0,nM
785,HTR2B,CHEMBL1833,Benzbromarone,CHEMBL388590,Ki,=,1148.0,nM
818,SLC6A2,CHEMBL222,Benztropine,CHEMBL1201203,IC50,=,1391.0,nM
819,SLC6A2,CHEMBL222,Benztropine,CHEMBL1201203,Ki,=,1379.0,nM
834,HRH2,CHEMBL1941,Benztropine,CHEMBL1201203,IC50,=,1206.0,nM
835,HRH2,CHEMBL1941,Benztropine,CHEMBL1201203,Ki,=,1185.0,nM
840,CACNA1C,CHEMBL2830,Bepridil,CHEMBL1008,IC50,=,22000.0,nM
890,AR,CHEMBL3072,Bromocriptine,CHEMBL493,IC50,=,2281.0,nM
891,AR,CHEMBL3072,Bromocriptine,CHEMBL493,Ki,=,1521.0,nM
917,ADRB1,CHEMBL213,Bromocriptine,CHEMBL493,IC50,=,2400.0,nM
918,ADRB1,CHEMBL213,Bromocriptine,CHEMBL493,Ki,=,1386.0,nM
1023,ADRA2A,CHEMBL2093864,Buspirone,CHEMBL49,IC50,=,10000.0,nM
1025,ADRA2A,CHEMBL4744,Buspirone,CHEMBL49,IC50,=,10000.0,nM
1089,DRD1,CHEMBL2967,Buspirone,CHEMBL49,Ki,=,6100.0,nM
1091,DRD1,CHEMBL2967,Buspirone,CHEMBL49,IC50,=,27000.0,nM
1108,ADRA2B,CHEMBL2093864,Buspirone,CHEMBL49,IC50,=,10000.0,nM
1111,ADRA2C,CHEMBL2093864,Buspirone,CHEMBL49,IC50,=,10000.0,nM
1113,KCNH2,CHEMBL240,Buspirone,CHEMBL49,IC50,=,3981.07,nM
1128,ADRA2A,CHEMBL1867,Butenafine,CHEMBL990,IC50,=,3644.3,nM
1129,ADRA2A,CHEMBL1867,Butenafine,CHEMBL990,Ki,=,1366.6,nM
1130,SLC6A2,CHEMBL222,Butenafine,CHEMBL990,IC50,=,3909.9,nM
1131,SLC6A2,CHEMBL222,Butenafine,CHEMBL990,Ki,=,3877.5,nM
1175,KCNH2,CHEMBL240,Caffeine,CHEMBL113,IC50,=,4897.79,nM
1220,SLC6A2,CHEMBL222,Candesartan,CHEMBL1016,IC50,=,3065.2,nM
1221,SLC6A2,CHEMBL222,Candesartan,CHEMBL1016,Ki,=,3039.8,nM
1259,ADRA2B,CHEMBL1942,Candesartan,CHEMBL1016,IC50,=,3843.0,nM
1260,ADRA2B,CHEMBL1942,Candesartan,CHEMBL1016,Ki,=,1754.4,nM
1261,ADRB3,CHEMBL246,Candesartan,CHEMBL1016,IC50,=,4300.0,nM
1262,ADRB3,CHEMBL246,Candesartan,CHEMBL1016,Ki,=,3200.0,nM
1588,SLC6A3,CHEMBL238,Celecoxib,CHEMBL118,IC50,=,2431.0,nM
1589,SLC6A3,CHEMBL238,Celecoxib,CHEMBL118,Ki,=,1931.0,nM
1592,DRD1,CHEMBL2056,Celecoxib,CHEMBL118,IC50,=,27994.0,nM
1593,DRD1,CHEMBL2056,Celecoxib,CHEMBL118,Ki,=,13997.0,nM
1594,SLC6A2,CHEMBL222,Celecoxib,CHEMBL118,IC50,=,7308.0,nM
1595,SLC6A2,CHEMBL222,Celecoxib,CHEMBL118,Ki,=,7247.0,nM
1596,SLC6A4,CHEMBL228,Celecoxib,CHEMBL118,IC50,=,6276.0,nM
1597,SLC6A4,CHEMBL228,Celecoxib,CHEMBL118,Ki,=,3334.0,nM
1791,ADRB3,CHEMBL246,Celecoxib,CHEMBL118,IC50,=,16124.0,nM
1792,ADRB3,CHEMBL246,Celecoxib,CHEMBL118,Ki,=,12093.0,nM
2019,MC4R,CHEMBL259,Chlorhexidine,CHEMBL790,IC50,=,1997.0,nM
2084,OPRK1,CHEMBL237,Chlorpromazine,CHEMBL71,IC50,=,11082.0,nM
2085,OPRK1,CHEMBL237,Chlorpromazine,CHEMBL71,Ki,=,4433.0,nM
2097,SLC6A3,CHEMBL238,Chlorpromazine,CHEMBL71,IC50,=,2643.0,nM
2098,SLC6A3,CHEMBL238,Chlorpromazine,CHEMBL71,Ki,=,2100.0,nM
2149,OPRM1,CHEMBL233,Chlorpromazine,CHEMBL71,IC50,=,14397.0,nM
2150,OPRM1,CHEMBL233,Chlorpromazine,CHEMBL71,Ki,=,5844.0,nM
2163,OPRD1,CHEMBL236,Chlorpromazine,CHEMBL71,IC50,=,20894.0,nM
2164,OPRD1,CHEMBL236,Chlorpromazine,CHEMBL71,Ki,=,7365.0,nM
2174,MC4R,CHEMBL259,Chlorpromazine,CHEMBL71,IC50,=,15204.0,nM
2175,MC4R,CHEMBL259,Chlorpromazine,CHEMBL71,Ki,=,14619.0,nM
2180,MC3R,CHEMBL4644,Chlorpromazine,CHEMBL71,IC50,=,24343.0,nM
2181,MC3R,CHEMBL4644,Chlorpromazine,CHEMBL71,Ki,=,21244.0,nM
2194,HRH2,CHEMBL1941,Chlorpromazine,CHEMBL71,IC50,=,2626.0,nM
2195,HRH2,CHEMBL1941,Chlorpromazine,CHEMBL71,Ki,=,2582.0,nM
2293,SLC6A3,CHEMBL238,Cinnarizine,CHEMBL43064,IC50,=,1641.0,nM
2294,SLC6A3,CHEMBL238,Cinnarizine,CHEMBL43064,Ki,=,1304.0,nM
2303,SLC6A2,CHEMBL222,Cinnarizine,CHEMBL43064,IC50,=,2832.0,nM
2304,SLC6A2,CHEMBL222,Cinnarizine,CHEMBL43064,Ki,=,2808.0,nM
2311,ADRA2B,CHEMBL1942,Cinnarizine,CHEMBL43064,IC50,=,2242.0,nM
2312,ADRA2B,CHEMBL1942,Cinnarizine,CHEMBL43064,Ki,=,1023.0,nM
2386,SLC6A2,CHEMBL222,Clemastine,CHEMBL1626,IC50,=,3086.0,nM
2387,SLC6A2,CHEMBL222,Clemastine,CHEMBL1626,Ki,=,3060.0,nM
2617,HTR1A,CHEMBL273,Clonidine,CHEMBL134,IC50,=,5365.0,nM
2618,HTR1A,CHEMBL273,Clonidine,CHEMBL134,Ki,=,3066.0,nM
2619,HTR1A,CHEMBL214,Clonidine,CHEMBL134,Ki,=,3235.94,nM
2667,CHRM2,CHEMBL211,Clotrimazole,CHEMBL104,IC50,=,14531.0,nM
2668,CHRM2,CHEMBL211,Clotrimazole,CHEMBL104,Ki,=,5167.0,nM
2671,AR,CHEMBL3072,Clotrimazole,CHEMBL104,IC50,=,11586.0,nM
2672,AR,CHEMBL3072,Clotrimazole,CHEMBL104,Ki,=,7724.0,nM
2673,DRD2,CHEMBL217,Clotrimazole,CHEMBL104,IC50,=,12186.0,nM
2674,DRD2,CHEMBL217,Clotrimazole,CHEMBL104,Ki,=,4062.0,nM
2675,OPRK1,CHEMBL237,Clotrimazole,CHEMBL104,IC50,=,6303.0,nM
2676,OPRK1,CHEMBL237,Clotrimazole,CHEMBL104,Ki,=,2521.0,nM
2677,HTR2A,CHEMBL224,Clotrimazole,CHEMBL104,IC50,=,11142.0,nM
2678,HTR2A,CHEMBL224,Clotrimazole,CHEMBL104,Ki,=,3183.0,nM
2679,ADRB2,CHEMBL210,Clotrimazole,CHEMBL104,EC50,=,4690.0,nM
2680,TACR1,CHEMBL249,Clotrimazole,CHEMBL104,IC50,=,16037.0,nM
2681,TACR1,CHEMBL249,Clotrimazole,CHEMBL104,Ki,=,8747.0,nM
2682,SLC6A3,CHEMBL238,Clotrimazole,CHEMBL104,IC50,=,5581.0,nM
2683,SLC6A3,CHEMBL238,Clotrimazole,CHEMBL104,Ki,=,4434.0,nM
2684,ADORA2A,CHEMBL251,Clotrimazole,CHEMBL104,IC50,=,12711.0,nM
2685,ADORA2A,CHEMBL251,Clotrimazole,CHEMBL104,Ki,=,7136.0,nM
2686,HRH1,CHEMBL231,Clotrimazole,CHEMBL104,IC50,=,29406.0,nM
2687,HRH1,CHEMBL231,Clotrimazole,CHEMBL104,Ki,=,3416.0,nM
2688,ADRA2A,CHEMBL1867,Clotrimazole,CHEMBL104,IC50,=,11886.0,nM
2689,ADRA2A,CHEMBL1867,Clotrimazole,CHEMBL104,Ki,=,4457.0,nM
2690,HTR1A,CHEMBL273,Clotrimazole,CHEMBL104,IC50,=,17688.0,nM
2691,HTR1A,CHEMBL273,Clotrimazole,CHEMBL104,Ki,=,10108.0,nM
2692,DRD1,CHEMBL2056,Clotrimazole,CHEMBL104,IC50,=,9017.0,nM
2693,DRD1,CHEMBL2056,Clotrimazole,CHEMBL104,Ki,=,4508.0,nM
2697,HTR2C,CHEMBL225,Clotrimazole,CHEMBL104,IC50,=,14472.0,nM
2698,HTR2C,CHEMBL225,Clotrimazole,CHEMBL104,Ki,=,7581.0,nM
2699,SLC6A2,CHEMBL222,Clotrimazole,CHEMBL104,IC50,=,7936.0,nM
2700,SLC6A2,CHEMBL222,Clotrimazole,CHEMBL104,Ki,=,7870.0,nM
2701,OPRD1,CHEMBL236,Clotrimazole,CHEMBL104,Ki,=,1755.0,nM
2702,OPRD1,CHEMBL236,Clotrimazole,CHEMBL104,IC50,=,4978.0,nM
2705,CHRM1,CHEMBL216,Clotrimazole,CHEMBL104,IC50,=,6869.0,nM
2706,CHRM1,CHEMBL216,Clotrimazole,CHEMBL104,Ki,=,1654.0,nM
2707,SLC6A4,CHEMBL228,Clotrimazole,CHEMBL104,IC50,=,5760.0,nM
2708,SLC6A4,CHEMBL228,Clotrimazole,CHEMBL104,Ki,=,3060.0,nM
2709,ADRB1,CHEMBL213,Clotrimazole,CHEMBL104,IC50,=,11279.0,nM
2710,ADRB1,CHEMBL213,Clotrimazole,CHEMBL104,Ki,=,6513.0,nM
2711,NR3C1,CHEMBL2034,Clotrimazole,CHEMBL104,IC50,=,3258.0,nM
2712,NR3C1,CHEMBL2034,Clotrimazole,CHEMBL104,Ki,=,1481.0,nM
2713,ADRA2B,CHEMBL1942,Clotrimazole,CHEMBL104,IC50,=,8159.0,nM
2714,ADRA2B,CHEMBL1942,Clotrimazole,CHEMBL104,Ki,=,3725.0,nM
2716,KCNH2,CHEMBL240,Clotrimazole,CHEMBL104,IC50,=,3019.95,nM
2717,HRH2,CHEMBL1941,Clotrimazole,CHEMBL104,IC50,=,5165.0,nM
2718,HRH2,CHEMBL1941,Clotrimazole,CHEMBL104,Ki,=,5079.0,nM
2719,ADORA1,CHEMBL226,Clotrimazole,CHEMBL104,IC50,=,13420.0,nM
2720,ADORA1,CHEMBL226,Clotrimazole,CHEMBL104,Ki,=,7830.0,nM
2721,HTR2B,CHEMBL1833,Clotrimazole,CHEMBL104,Ki,=,7385.0,nM
2722,HTR2B,CHEMBL1833,Clotrimazole,CHEMBL104,IC50,=,11604.0,nM
2723,DRD4,CHEMBL219,Clotrimazole,CHEMBL104,IC50,=,19919.0,nM
2724,DRD4,CHEMBL219,Clotrimazole,CHEMBL104,Ki,=,6985.0,nM
2725,ADRB3,CHEMBL246,Clotrimazole,CHEMBL104,IC50,=,7208.0,nM
2726,ADRB3,CHEMBL246,Clotrimazole,CHEMBL104,Ki,=,5406.0,nM
2727,AVPR2,CHEMBL1790,Clotrimazole,CHEMBL104,IC50,=,15100.0,nM
2728,AVPR2,CHEMBL1790,Clotrimazole,CHEMBL104,IC50,=,15848.93,nM
2729,AVPR2,CHEMBL1790,Clotrimazole,CHEMBL104,IC50,=,2700.0,nM
2730,AVPR2,CHEMBL1790,Clotrimazole,CHEMBL104,IC50,=,2511.89,nM
2731,CHRM3,CHEMBL245,Clotrimazole,CHEMBL104,IC50,=,9928.0,nM
2732,CHRM3,CHEMBL245,Clotrimazole,CHEMBL104,Ki,=,2104.0,nM
3312,HRH2,CHEMBL1941,Clozapine,CHEMBL42,Ki,=,3550.0,nM
3313,HRH2,CHEMBL1941,Clozapine,CHEMBL42,IC50,=,3610.0,nM
3455,DRD3,CHEMBL234,Danazol,CHEMBL1479,IC50,=,28860.0,nM
3456,DRD3,CHEMBL234,Danazol,CHEMBL1479,Ki,=,9800.0,nM
3460,OPRK1,CHEMBL237,Danazol,CHEMBL1479,IC50,=,15518.0,nM
3461,OPRK1,CHEMBL237,Danazol,CHEMBL1479,Ki,=,6207.0,nM
3462,HTR2A,CHEMBL224,Danazol,CHEMBL1479,IC50,=,8850.0,nM
3463,HTR2A,CHEMBL224,Danazol,CHEMBL1479,Ki,=,2528.0,nM
3464,SLC6A3,CHEMBL238,Danazol,CHEMBL1479,IC50,=,6842.0,nM
3465,SLC6A3,CHEMBL238,Danazol,CHEMBL1479,Ki,=,5436.0,nM
3466,ADRA2A,CHEMBL1867,Danazol,CHEMBL1479,IC50,=,18328.0,nM
3467,ADRA2A,CHEMBL1867,Danazol,CHEMBL1479,Ki,=,6873.0,nM
3468,DRD1,CHEMBL2056,Danazol,CHEMBL1479,IC50,=,20449.0,nM
3469,DRD1,CHEMBL2056,Danazol,CHEMBL1479,Ki,=,10225.0,nM
3470,OPRM1,CHEMBL233,Danazol,CHEMBL1479,IC50,=,14079.0,nM
3471,OPRM1,CHEMBL233,Danazol,CHEMBL1479,Ki,=,5715.0,nM
3472,SLC6A2,CHEMBL222,Danazol,CHEMBL1479,IC50,=,5698.0,nM
3473,SLC6A2,CHEMBL222,Danazol,CHEMBL1479,Ki,=,5651.0,nM
3474,SLC6A4,CHEMBL228,Danazol,CHEMBL1479,IC50,=,15420.0,nM
3475,SLC6A4,CHEMBL228,Danazol,CHEMBL1479,Ki,=,8193.0,nM
3477,NR3C1,CHEMBL2034,Danazol,CHEMBL1479,IC50,=,4314.0,nM
3478,NR3C1,CHEMBL2034,Danazol,CHEMBL1479,Ki,=,1961.0,nM
3479,ADRA2B,CHEMBL1942,Danazol,CHEMBL1479,Ki,=,10574.0,nM
3480,ADRA2B,CHEMBL1942,Danazol,CHEMBL1479,IC50,=,23163.0,nM
3481,ADRA2C,CHEMBL1916,Danazol,CHEMBL1479,Ki,=,3451.0,nM
3482,ADRA2C,CHEMBL1916,Danazol,CHEMBL1479,IC50,=,23752.0,nM
3486,ADRB3,CHEMBL246,Danazol,CHEMBL1479,IC50,=,17020.0,nM
3487,ADRB3,CHEMBL246,Danazol,CHEMBL1479,Ki,=,12765.0,nM
3488,CHRM3,CHEMBL245,Danazol,CHEMBL1479,IC50,=,17747.0,nM
3489,CHRM3,CHEMBL245,Danazol,CHEMBL1479,Ki,=,3762.0,nM
3497,SLC6A3,CHEMBL238,Desloratadine,CHEMBL1172,IC50,=,3879.0,nM
3498,SLC6A3,CHEMBL238,Desloratadine,CHEMBL1172,Ki,=,3082.0,nM
3509,SLC6A2,CHEMBL222,Desloratadine,CHEMBL1172,IC50,=,1116.0,nM
3510,SLC6A2,CHEMBL222,Desloratadine,CHEMBL1172,Ki,=,1107.0,nM
3517,HRH2,CHEMBL1941,Desloratadine,CHEMBL1172,Ki,=,1080.0,nM
3518,HRH2,CHEMBL1941,Desloratadine,CHEMBL1172,IC50,=,1099.0,nM
3525,AR,CHEMBL3072,Dexamethasone,CHEMBL384467,IC50,=,24556.0,nM
3526,AR,CHEMBL3072,Dexamethasone,CHEMBL384467,Ki,=,16371.0,nM
3529,AR,CHEMBL1871,Dexamethasone,CHEMBL384467,Ki,=,1410.0,nM
3686,SLC6A4,CHEMBL228,Dextroamphetamine,CHEMBL612,Ki,=,5728.0,nM
3687,SLC6A4,CHEMBL228,Dextroamphetamine,CHEMBL612,IC50,=,16595.87,nM
3688,SLC6A4,CHEMBL228,Dextroamphetamine,CHEMBL612,EC50,=,1770.0,nM
5361,AVPR1A,CHEMBL1889,Diethylstilbestrol,CHEMBL411,IC50,=,25925.0,nM
5362,AVPR1A,CHEMBL1889,Diethylstilbestrol,CHEMBL411,Ki,=,10401.0,nM
5363,DRD3,CHEMBL234,Diethylstilbestrol,CHEMBL411,IC50,=,8796.0,nM
5364,DRD3,CHEMBL234,Diethylstilbestrol,CHEMBL411,Ki,=,2987.0,nM
5365,AR,CHEMBL3072,Diethylstilbestrol,CHEMBL411,IC50,=,14125.38,nM
5367,DRD2,CHEMBL217,Diethylstilbestrol,CHEMBL411,IC50,=,13321.0,nM
5368,DRD2,CHEMBL217,Diethylstilbestrol,CHEMBL411,Ki,=,4440.0,nM
5369,OPRK1,CHEMBL237,Diethylstilbestrol,CHEMBL411,IC50,=,4563.0,nM
5370,OPRK1,CHEMBL237,Diethylstilbestrol,CHEMBL411,Ki,=,1825.0,nM
5383,HTR2A,CHEMBL224,Diethylstilbestrol,CHEMBL411,IC50,=,4790.0,nM
5384,HTR2A,CHEMBL224,Diethylstilbestrol,CHEMBL411,Ki,=,1369.0,nM
5387,ADORA2A,CHEMBL251,Diethylstilbestrol,CHEMBL411,IC50,=,9013.0,nM
5388,ADORA2A,CHEMBL251,Diethylstilbestrol,CHEMBL411,Ki,=,5060.0,nM
5389,ADRA2A,CHEMBL1867,Diethylstilbestrol,CHEMBL411,IC50,=,14127.0,nM
5390,ADRA2A,CHEMBL1867,Diethylstilbestrol,CHEMBL411,Ki,=,5297.0,nM
5391,DRD1,CHEMBL2056,Diethylstilbestrol,CHEMBL411,IC50,=,7763.0,nM
5392,DRD1,CHEMBL2056,Diethylstilbestrol,CHEMBL411,Ki,=,3882.0,nM
5393,OPRM1,CHEMBL233,Diethylstilbestrol,CHEMBL411,IC50,=,5778.0,nM
5394,OPRM1,CHEMBL233,Diethylstilbestrol,CHEMBL411,Ki,=,2345.0,nM
5396,HTR2C,CHEMBL225,Diethylstilbestrol,CHEMBL411,Ki,=,26619.0,nM
5397,SLC6A2,CHEMBL222,Diethylstilbestrol,CHEMBL411,IC50,=,3670.0,nM
5398,SLC6A2,CHEMBL222,Diethylstilbestrol,CHEMBL411,Ki,=,3640.0,nM
5401,CHRM1,CHEMBL216,Diethylstilbestrol,CHEMBL411,IC50,=,15171.0,nM
5402,CHRM1,CHEMBL216,Diethylstilbestrol,CHEMBL411,Ki,=,3654.0,nM
5403,SLC6A4,CHEMBL228,Diethylstilbestrol,CHEMBL411,IC50,=,12492.0,nM
5404,SLC6A4,CHEMBL228,Diethylstilbestrol,CHEMBL411,Ki,=,6637.0,nM
5405,ADRB1,CHEMBL213,Diethylstilbestrol,CHEMBL411,IC50,=,22088.0,nM
5406,ADRB1,CHEMBL213,Diethylstilbestrol,CHEMBL411,Ki,=,12755.0,nM
5409,NR3C1,CHEMBL2034,Diethylstilbestrol,CHEMBL411,IC50,=,10600.0,nM
5410,NR3C1,CHEMBL2034,Diethylstilbestrol,CHEMBL411,Ki,=,4818.0,nM
5412,ADRA2B,CHEMBL1942,Diethylstilbestrol,CHEMBL411,IC50,=,11698.0,nM
5413,ADRA2B,CHEMBL1942,Diethylstilbestrol,CHEMBL411,Ki,=,5340.0,nM
5414,ADRA2C,CHEMBL1916,Diethylstilbestrol,CHEMBL411,IC50,=,15151.0,nM
5415,ADRA2C,CHEMBL1916,Diethylstilbestrol,CHEMBL411,Ki,=,2201.0,nM
5443,ADORA1,CHEMBL226,Diethylstilbestrol,CHEMBL411,IC50,=,2856.0,nM
5444,ADORA1,CHEMBL226,Diethylstilbestrol,CHEMBL411,Ki,=,1666.0,nM
5446,HTR2B,CHEMBL1833,Diethylstilbestrol,CHEMBL411,IC50,=,3140.0,nM
5447,HTR2B,CHEMBL1833,Diethylstilbestrol,CHEMBL411,Ki,=,1998.0,nM
5448,CHRM3,CHEMBL245,Diethylstilbestrol,CHEMBL411,IC50,=,18432.0,nM
5449,CHRM3,CHEMBL245,Diethylstilbestrol,CHEMBL411,Ki,=,3907.0,nM
5479,CCKBR,CHEMBL2854,Dihydroergotamine,CHEMBL1732,IC50,=,23000.0,nM
5583,KCNH2,CHEMBL240,Disopyramide,CHEMBL517,IC50,=,12000.0,nM
5625,OPRK1,CHEMBL237,Domperidone,CHEMBL219916,IC50,=,6994.0,nM
5626,OPRK1,CHEMBL237,Domperidone,CHEMBL219916,Ki,=,2798.0,nM
5631,ADRA2A,CHEMBL1867,Domperidone,CHEMBL219916,IC50,=,2740.0,nM
5632,ADRA2A,CHEMBL1867,Domperidone,CHEMBL219916,Ki,=,1027.0,nM
5641,SLC6A2,CHEMBL222,Domperidone,CHEMBL219916,IC50,=,2614.0,nM
5642,SLC6A2,CHEMBL222,Domperidone,CHEMBL219916,Ki,=,2593.0,nM
5645,SLC6A4,CHEMBL228,Domperidone,CHEMBL219916,IC50,=,3055.0,nM
5646,SLC6A4,CHEMBL228,Domperidone,CHEMBL219916,Ki,=,1623.0,nM
5658,HTR2B,CHEMBL1833,Domperidone,CHEMBL219916,IC50,=,2600.0,nM
5659,HTR2B,CHEMBL1833,Domperidone,CHEMBL219916,Ki,=,1655.0,nM
5665,KCNH2,CHEMBL240,Donepezil,CHEMBL502,IC50,=,1995.26,nM
5676,ADRB2,CHEMBL210,Doxazosin,CHEMBL707,IC50,=,2748.0,nM
5677,ADRB2,CHEMBL210,Doxazosin,CHEMBL707,Ki,=,1889.0,nM
5687,SLC6A4,CHEMBL228,Doxazosin,CHEMBL707,IC50,=,2688.0,nM
5688,SLC6A4,CHEMBL228,Doxazosin,CHEMBL707,Ki,=,1428.0,nM
5696,CHRM1,CHEMBL216,Doxorubicin,CHEMBL53463,IC50,=,15336.0,nM
5697,CHRM1,CHEMBL216,Doxorubicin,CHEMBL53463,Ki,=,3693.0,nM
5707,ADRA2A,CHEMBL1867,Droperidol,CHEMBL1108,IC50,=,2965.0,nM
5708,ADRA2A,CHEMBL1867,Droperidol,CHEMBL1108,Ki,=,1112.0,nM
5793,CHRM2,CHEMBL211,Econazole,CHEMBL808,IC50,=,3256.0,nM
5794,CHRM2,CHEMBL211,Econazole,CHEMBL808,Ki,=,1158.0,nM
5795,DRD3,CHEMBL234,Econazole,CHEMBL808,IC50,=,4756.0,nM
5796,DRD3,CHEMBL234,Econazole,CHEMBL808,Ki,=,1615.0,nM
5797,AR,CHEMBL3072,Econazole,CHEMBL808,IC50,=,10125.0,nM
5798,AR,CHEMBL3072,Econazole,CHEMBL808,Ki,=,6750.0,nM
5799,DRD2,CHEMBL217,Econazole,CHEMBL808,IC50,=,12807.0,nM
5800,DRD2,CHEMBL217,Econazole,CHEMBL808,Ki,=,4269.0,nM
5801,OPRK1,CHEMBL237,Econazole,CHEMBL808,IC50,=,8616.0,nM
5802,OPRK1,CHEMBL237,Econazole,CHEMBL808,Ki,=,3446.0,nM
5804,CNR1,CHEMBL218,Econazole,CHEMBL808,Ki,=,28627.0,nM
5805,HTR2A,CHEMBL224,Econazole,CHEMBL808,IC50,=,4034.0,nM
5806,HTR2A,CHEMBL224,Econazole,CHEMBL808,Ki,=,1152.0,nM
5807,TACR1,CHEMBL249,Econazole,CHEMBL808,IC50,=,11870.0,nM
5808,TACR1,CHEMBL249,Econazole,CHEMBL808,Ki,=,6476.0,nM
5811,ADORA2A,CHEMBL251,Econazole,CHEMBL808,IC50,=,14616.0,nM
5812,ADORA2A,CHEMBL251,Econazole,CHEMBL808,Ki,=,8206.0,nM
5813,ADRA2A,CHEMBL1867,Econazole,CHEMBL808,IC50,=,4325.0,nM
5814,ADRA2A,CHEMBL1867,Econazole,CHEMBL808,Ki,=,1622.0,nM
5815,HTR1A,CHEMBL273,Econazole,CHEMBL808,IC50,=,16177.0,nM
5816,HTR1A,CHEMBL273,Econazole,CHEMBL808,Ki,=,9244.0,nM
5817,DRD1,CHEMBL2056,Econazole,CHEMBL808,IC50,=,9225.0,nM
5818,DRD1,CHEMBL2056,Econazole,CHEMBL808,Ki,=,4612.0,nM
5819,OPRM1,CHEMBL233,Econazole,CHEMBL808,IC50,=,5693.0,nM
5820,OPRM1,CHEMBL233,Econazole,CHEMBL808,Ki,=,2311.0,nM
5821,HTR2C,CHEMBL225,Econazole,CHEMBL808,IC50,=,11982.0,nM
5822,HTR2C,CHEMBL225,Econazole,CHEMBL808,Ki,=,6276.0,nM
5823,SLC6A2,CHEMBL222,Econazole,CHEMBL808,IC50,=,2435.0,nM
5824,SLC6A2,CHEMBL222,Econazole,CHEMBL808,Ki,=,2415.0,nM
5831,ADRB1,CHEMBL213,Econazole,CHEMBL808,IC50,=,12821.0,nM
5832,ADRB1,CHEMBL213,Econazole,CHEMBL808,Ki,=,7404.0,nM
5833,ADRA2B,CHEMBL1942,Econazole,CHEMBL808,IC50,=,5863.0,nM
5834,ADRA2B,CHEMBL1942,Econazole,CHEMBL808,Ki,=,2677.0,nM
5837,HRH2,CHEMBL1941,Econazole,CHEMBL808,IC50,=,1592.0,nM
5838,HRH2,CHEMBL1941,Econazole,CHEMBL808,Ki,=,1565.0,nM
5839,ADORA1,CHEMBL226,Econazole,CHEMBL808,IC50,=,16924.0,nM
5840,ADORA1,CHEMBL226,Econazole,CHEMBL808,Ki,=,9872.0,nM
5841,HTR2B,CHEMBL1833,Econazole,CHEMBL808,IC50,=,6833.0,nM
5842,HTR2B,CHEMBL1833,Econazole,CHEMBL808,Ki,=,4348.0,nM
5843,DRD4,CHEMBL219,Econazole,CHEMBL808,IC50,=,9328.0,nM
5844,DRD4,CHEMBL219,Econazole,CHEMBL808,Ki,=,3271.0,nM
5845,ADRB3,CHEMBL246,Econazole,CHEMBL808,IC50,=,6150.0,nM
5846,ADRB3,CHEMBL246,Econazole,CHEMBL808,Ki,=,4612.0,nM
5847,NPY2R,CHEMBL4018,Econazole,CHEMBL808,IC50,=,20145.0,nM
5848,NPY2R,CHEMBL4018,Econazole,CHEMBL808,Ki,=,10988.0,nM
5875,NR3C1,CHEMBL2034,Eplerenone,CHEMBL1095097,IC50,=,18000.0,nM
5899,AR,CHEMBL3072,Ethinyl estradiol,CHEMBL691,IC50,=,1634.0,nM
5900,AR,CHEMBL3072,Ethinyl estradiol,CHEMBL691,Ki,=,1090.0,nM
5901,AR,CHEMBL3072,Ethinyl estradiol,CHEMBL691,IC50,=,8128.31,nM
5904,OPRK1,CHEMBL237,Ethinyl estradiol,CHEMBL691,IC50,=,25894.0,nM
5905,OPRK1,CHEMBL237,Ethinyl estradiol,CHEMBL691,Ki,=,10358.0,nM
5934,ADORA2A,CHEMBL251,Ethinyl estradiol,CHEMBL691,IC50,=,20931.0,nM
5935,ADORA2A,CHEMBL251,Ethinyl estradiol,CHEMBL691,Ki,=,11751.0,nM
5936,OPRM1,CHEMBL233,Ethinyl estradiol,CHEMBL691,IC50,=,26769.0,nM
5937,OPRM1,CHEMBL233,Ethinyl estradiol,CHEMBL691,Ki,=,10867.0,nM
6013,KCNH2,CHEMBL240,Fasudil,CHEMBL38380,Ki,=,25118.86,nM
6020,SLC6A3,CHEMBL238,Fenofibrate,CHEMBL672,IC50,=,8633.0,nM
6021,SLC6A3,CHEMBL238,Fenofibrate,CHEMBL672,Ki,=,6859.0,nM
6022,HTR2C,CHEMBL225,Fenofibrate,CHEMBL672,IC50,=,2371.0,nM
6023,HTR2C,CHEMBL225,Fenofibrate,CHEMBL672,Ki,=,1242.0,nM
6024,SLC6A2,CHEMBL222,Fenofibrate,CHEMBL672,IC50,=,21408.0,nM
6025,SLC6A2,CHEMBL222,Fenofibrate,CHEMBL672,Ki,=,21231.0,nM
6044,HRH1,CHEMBL4701,Fentanyl,CHEMBL596,IC50,=,19952.62,nM
6070,KCNH2,CHEMBL240,Fentanyl,CHEMBL596,IC50,=,1819.7,nM
6634,CHRM2,CHEMBL211,Fluphenazine,CHEMBL726,IC50,=,7481.0,nM
6635,CHRM2,CHEMBL211,Fluphenazine,CHEMBL726,Ki,=,2660.0,nM
6643,OPRK1,CHEMBL237,Fluphenazine,CHEMBL726,IC50,=,24727.0,nM
6644,OPRK1,CHEMBL237,Fluphenazine,CHEMBL726,Ki,=,9891.0,nM
6647,SLC6A3,CHEMBL238,Fluphenazine,CHEMBL726,IC50,=,2053.0,nM
6648,SLC6A3,CHEMBL238,Fluphenazine,CHEMBL726,Ki,=,1631.0,nM
6661,OPRM1,CHEMBL233,Fluphenazine,CHEMBL726,IC50,=,20745.0,nM
6662,OPRM1,CHEMBL233,Fluphenazine,CHEMBL726,Ki,=,8421.0,nM
6665,SLC6A2,CHEMBL222,Fluphenazine,CHEMBL726,IC50,=,1962.0,nM
6666,SLC6A2,CHEMBL222,Fluphenazine,CHEMBL726,Ki,=,1946.0,nM
6667,OPRD1,CHEMBL236,Fluphenazine,CHEMBL726,IC50,=,24036.0,nM
6668,OPRD1,CHEMBL236,Fluphenazine,CHEMBL726,Ki,=,8473.0,nM
6680,KCNH2,CHEMBL240,Fluphenazine,CHEMBL726,IC50,=,5705.8,nM
6681,KCNH2,CHEMBL240,Fluphenazine,CHEMBL726,Ki,=,4674.6,nM
6682,HRH2,CHEMBL1941,Fluphenazine,CHEMBL726,IC50,=,1226.0,nM
6683,HRH2,CHEMBL1941,Fluphenazine,CHEMBL726,Ki,=,1205.0,nM
6686,DRD4,CHEMBL219,Fluphenazine,CHEMBL726,IC50,=,5877.0,nM
6687,DRD4,CHEMBL219,Fluphenazine,CHEMBL726,Ki,=,2061.0,nM
6688,ADRB3,CHEMBL246,Fluphenazine,CHEMBL726,IC50,=,29488.0,nM
6689,ADRB3,CHEMBL246,Fluphenazine,CHEMBL726,Ki,=,22116.0,nM
6690,CHRM3,CHEMBL245,Fluphenazine,CHEMBL726,IC50,=,4728.0,nM
6691,CHRM3,CHEMBL245,Fluphenazine,CHEMBL726,Ki,=,1002.0,nM
6743,SLC6A2,CHEMBL304,Fluvoxamine,CHEMBL814,IC50,=,1900.0,nM
6755,CHRM1,CHEMBL216,Gallamine,CHEMBL360055,Ki,=,8511.38,nM
6785,HTR2B,CHEMBL1833,Guanfacine,CHEMBL862,IC50,=,2098.0,nM
6786,HTR2B,CHEMBL1833,Guanfacine,CHEMBL862,Ki,=,1335.0,nM
7046,OPRK1,CHEMBL2094129,Haloperidol,CHEMBL54,Ki,=,1210.0,nM
7048,OPRK1,CHEMBL2094129,Haloperidol,CHEMBL54,IC50,=,5687.0,nM
7137,ADRA2A,CHEMBL2093864,Haloperidol,CHEMBL54,IC50,=,6000.0,nM
7138,ADRA2A,CHEMBL2093864,Haloperidol,CHEMBL54,Ki,=,2700.0,nM
7140,ADRA2A,CHEMBL2093864,Haloperidol,CHEMBL54,Ki,=,9600.0,nM
7143,ADRA2A,CHEMBL1867,Haloperidol,CHEMBL54,IC50,=,4973.0,nM
7144,ADRA2A,CHEMBL1867,Haloperidol,CHEMBL54,Ki,=,1865.0,nM
7263,SLC6A2,CHEMBL222,Haloperidol,CHEMBL54,IC50,=,1836.0,nM
7264,SLC6A2,CHEMBL222,Haloperidol,CHEMBL54,Ki,=,1820.0,nM
7314,HRH2,CHEMBL1941,Haloperidol,CHEMBL54,IC50,=,1166.0,nM
7315,HRH2,CHEMBL1941,Haloperidol,CHEMBL54,Ki,=,1147.0,nM
7437,CHRM2,CHEMBL211,Hydroxychloroquine,CHEMBL1535,IC50,=,2951.0,nM
7438,CHRM2,CHEMBL211,Hydroxychloroquine,CHEMBL1535,Ki,=,1049.0,nM
7443,HRH2,CHEMBL1941,Imatinib,CHEMBL941,IC50,=,1963.0,nM
7444,HRH2,CHEMBL1941,Imatinib,CHEMBL941,Ki,=,1930.0,nM
7470,GRIN3A,CHEMBL1907608,Imipramine,CHEMBL11,IC50,=,14000.0,nM
7528,ADORA2A,CHEMBL251,Imiquimod,CHEMBL1282,IC50,=,5320.0,nM
7529,ADORA2A,CHEMBL251,Imiquimod,CHEMBL1282,Ki,=,2987.0,nM
7530,HRH2,CHEMBL1941,Imiquimod,CHEMBL1282,IC50,=,1506.0,nM
7531,HRH2,CHEMBL1941,Imiquimod,CHEMBL1282,Ki,=,1481.0,nM
7900,EDNRA,CHEMBL252,Irbesartan,CHEMBL1513,Ki,=,10000.0,nM
7920,ADRA2B,CHEMBL1942,Isotretinoin,CHEMBL547,IC50,=,6612.0,nM
7921,ADRA2B,CHEMBL1942,Isotretinoin,CHEMBL547,Ki,=,3019.0,nM
8057,HTR1A,CHEMBL273,Ketotifen,CHEMBL534,IC50,=,2537.0,nM
8058,HTR1A,CHEMBL273,Ketotifen,CHEMBL534,Ki,=,1450.0,nM
8073,HRH2,CHEMBL1941,Ketotifen,CHEMBL534,Ki,=,4060.0,nM
8074,HRH2,CHEMBL1941,Ketotifen,CHEMBL534,IC50,=,4129.0,nM
8085,SLC6A3,CHEMBL238,Leflunomide,CHEMBL960,IC50,=,2884.0,nM
8086,SLC6A3,CHEMBL238,Leflunomide,CHEMBL960,Ki,=,2291.0,nM
8087,SLC6A2,CHEMBL222,Leflunomide,CHEMBL960,IC50,=,4630.0,nM
8088,SLC6A2,CHEMBL222,Leflunomide,CHEMBL960,Ki,=,4591.0,nM
8091,MAOA,CHEMBL1951,Leflunomide,CHEMBL960,IC50,=,20696.0,nM
8193,ADRA1A,CHEMBL1907610,Levosulpiride,CHEMBL267044,Ki,=,15000.0,nM
8198,HTR2C,CHEMBL2093870,Levosulpiride,CHEMBL267044,Ki,=,27000.0,nM
8200,HTR2B,CHEMBL2093870,Levosulpiride,CHEMBL267044,Ki,=,27000.0,nM
8284,HRH2,CHEMBL1941,Lisuride,CHEMBL157138,IC50,=,1040.0,nM
8285,HRH2,CHEMBL1941,Lisuride,CHEMBL157138,Ki,=,1022.0,nM
8289,KCNH2,CHEMBL240,Lopinavir,CHEMBL729,IC50,=,8511.38,nM
8301,NR1I2,CHEMBL3401,Loratadine,CHEMBL998,EC50,=,3000.0,nM
8429,AR,CHEMBL3072,Lovastatin,CHEMBL503,Ki,=,20110.0,nM
8430,SLC6A3,CHEMBL238,Lovastatin,CHEMBL503,IC50,=,10104.0,nM
8431,SLC6A3,CHEMBL238,Lovastatin,CHEMBL503,Ki,=,8028.0,nM
8432,SLC6A2,CHEMBL222,Lovastatin,CHEMBL503,IC50,=,8753.0,nM
8433,SLC6A2,CHEMBL222,Lovastatin,CHEMBL503,Ki,=,8680.0,nM
8436,ADORA1,CHEMBL226,Lovastatin,CHEMBL503,IC50,=,26720.0,nM
8437,ADORA1,CHEMBL226,Lovastatin,CHEMBL503,Ki,=,15586.0,nM
8459,PTGS2,CHEMBL2096674,Masoprocol,CHEMBL52,IC50,=,14000.0,nM
8560,MAOA,CHEMBL1951,Menadione,CHEMBL590,Ki,=,26000.0,nM
8568,SLC6A3,CHEMBL338,Meperidine,CHEMBL607,Ki,=,17800.0,nM
8593,AR,CHEMBL3072,Mestranol,CHEMBL1201151,IC50,=,10682.0,nM
8594,AR,CHEMBL3072,Mestranol,CHEMBL1201151,Ki,=,7121.0,nM
8595,CNR1,CHEMBL218,Mestranol,CHEMBL1201151,IC50,=,28540.0,nM
8596,CNR1,CHEMBL218,Mestranol,CHEMBL1201151,Ki,=,22532.0,nM
8598,SLC6A2,CHEMBL222,Mestranol,CHEMBL1201151,IC50,=,1382.0,nM
8599,SLC6A2,CHEMBL222,Mestranol,CHEMBL1201151,Ki,=,1371.0,nM
8670,AR,CHEMBL3072,Methylprednisolone,CHEMBL650,Ki,=,17786.0,nM
8671,AR,CHEMBL3072,Methylprednisolone,CHEMBL650,IC50,=,26680.0,nM
8710,ADRA2B,CHEMBL1942,Methysergide,CHEMBL1065,IC50,=,4763.0,nM
8711,ADRA2B,CHEMBL1942,Methysergide,CHEMBL1065,Ki,=,2175.0,nM
8794,HTR2A,CHEMBL224,Metoclopramide,CHEMBL86,IC50,=,3675.0,nM
8795,HTR2A,CHEMBL224,Metoclopramide,CHEMBL86,Ki,=,1050.0,nM
8796,ADRA2A,CHEMBL2093864,Metoclopramide,CHEMBL86,IC50,=,7700.0,nM
8797,ADRA2A,CHEMBL1867,Metoclopramide,CHEMBL86,IC50,=,2721.0,nM
8798,ADRA2A,CHEMBL1867,Metoclopramide,CHEMBL86,Ki,=,1020.0,nM
8803,HTR2C,CHEMBL2093870,Metoclopramide,CHEMBL86,IC50,=,13200.0,nM
8804,HTR2C,CHEMBL225,Metoclopramide,CHEMBL86,IC50,=,2383.0,nM
8805,HTR2C,CHEMBL225,Metoclopramide,CHEMBL86,Ki,=,1248.0,nM
8807,ADRA2B,CHEMBL2093864,Metoclopramide,CHEMBL86,IC50,=,7700.0,nM
8808,ADRA2C,CHEMBL2093864,Metoclopramide,CHEMBL86,IC50,=,7700.0,nM
8815,PTGS2,CHEMBL230,Miconazole,CHEMBL91,IC50,=,25844.0,nM
8816,CHRM2,CHEMBL211,Miconazole,CHEMBL91,IC50,=,4336.0,nM
8817,CHRM2,CHEMBL211,Miconazole,CHEMBL91,Ki,=,1542.0,nM
8818,DRD3,CHEMBL234,Miconazole,CHEMBL91,IC50,=,3199.0,nM
8819,DRD3,CHEMBL234,Miconazole,CHEMBL91,Ki,=,1086.0,nM
8820,AR,CHEMBL3072,Miconazole,CHEMBL91,IC50,=,7089.0,nM
8821,AR,CHEMBL3072,Miconazole,CHEMBL91,Ki,=,4726.0,nM
8822,DRD2,CHEMBL217,Miconazole,CHEMBL91,IC50,=,12504.0,nM
8823,DRD2,CHEMBL217,Miconazole,CHEMBL91,Ki,=,4168.0,nM
8824,OPRK1,CHEMBL237,Miconazole,CHEMBL91,IC50,=,6594.0,nM
8825,OPRK1,CHEMBL237,Miconazole,CHEMBL91,Ki,=,2637.0,nM
8826,CNR1,CHEMBL218,Miconazole,CHEMBL91,IC50,=,21050.0,nM
8827,CNR1,CHEMBL218,Miconazole,CHEMBL91,Ki,=,16614.0,nM
8828,HTR2A,CHEMBL224,Miconazole,CHEMBL91,IC50,=,3907.0,nM
8829,HTR2A,CHEMBL224,Miconazole,CHEMBL91,Ki,=,1116.0,nM
8830,TACR1,CHEMBL249,Miconazole,CHEMBL91,IC50,=,6813.0,nM
8831,TACR1,CHEMBL249,Miconazole,CHEMBL91,Ki,=,3716.0,nM
8832,SLC6A3,CHEMBL238,Miconazole,CHEMBL91,IC50,=,1701.0,nM
8833,SLC6A3,CHEMBL238,Miconazole,CHEMBL91,Ki,=,1352.0,nM
8834,ADORA2A,CHEMBL251,Miconazole,CHEMBL91,IC50,=,14253.0,nM
8835,ADORA2A,CHEMBL251,Miconazole,CHEMBL91,Ki,=,8002.0,nM
8836,ADRA2A,CHEMBL1867,Miconazole,CHEMBL91,IC50,=,3966.0,nM
8837,ADRA2A,CHEMBL1867,Miconazole,CHEMBL91,Ki,=,1487.0,nM
8838,HTR1A,CHEMBL273,Miconazole,CHEMBL91,IC50,=,11472.0,nM
8839,HTR1A,CHEMBL273,Miconazole,CHEMBL91,Ki,=,6555.0,nM
8840,DRD1,CHEMBL2056,Miconazole,CHEMBL91,IC50,=,6247.0,nM
8841,DRD1,CHEMBL2056,Miconazole,CHEMBL91,Ki,=,3124.0,nM
8842,OPRM1,CHEMBL233,Miconazole,CHEMBL91,IC50,=,6059.0,nM
8843,OPRM1,CHEMBL233,Miconazole,CHEMBL91,Ki,=,2460.0,nM
8844,HTR2C,CHEMBL225,Miconazole,CHEMBL91,IC50,=,5314.0,nM
8845,HTR2C,CHEMBL225,Miconazole,CHEMBL91,Ki,=,2784.0,nM
8846,SLC6A2,CHEMBL222,Miconazole,CHEMBL91,IC50,=,2939.0,nM
8847,SLC6A2,CHEMBL222,Miconazole,CHEMBL91,Ki,=,2915.0,nM
8848,OPRD1,CHEMBL236,Miconazole,CHEMBL91,IC50,=,3387.0,nM
8849,OPRD1,CHEMBL236,Miconazole,CHEMBL91,Ki,=,1194.0,nM
8854,MC4R,CHEMBL259,Miconazole,CHEMBL91,IC50,=,12448.0,nM
8855,MC4R,CHEMBL259,Miconazole,CHEMBL91,Ki,=,11970.0,nM
8856,ADRB1,CHEMBL213,Miconazole,CHEMBL91,IC50,=,12635.0,nM
8857,ADRB1,CHEMBL213,Miconazole,CHEMBL91,Ki,=,7296.0,nM
8858,ADRA2B,CHEMBL1942,Miconazole,CHEMBL91,IC50,=,3598.0,nM
8859,ADRA2B,CHEMBL1942,Miconazole,CHEMBL91,Ki,=,1642.0,nM
8860,MC3R,CHEMBL4644,Miconazole,CHEMBL91,IC50,=,18485.0,nM
8861,MC3R,CHEMBL4644,Miconazole,CHEMBL91,Ki,=,16132.0,nM
8862,HRH2,CHEMBL1941,Miconazole,CHEMBL91,IC50,=,6750.0,nM
8863,HRH2,CHEMBL1941,Miconazole,CHEMBL91,Ki,=,6637.0,nM
8864,ADORA1,CHEMBL226,Miconazole,CHEMBL91,IC50,=,12519.0,nM
8865,ADORA1,CHEMBL226,Miconazole,CHEMBL91,Ki,=,7303.0,nM
8866,HTR2B,CHEMBL1833,Miconazole,CHEMBL91,IC50,=,5545.0,nM
8867,HTR2B,CHEMBL1833,Miconazole,CHEMBL91,Ki,=,3529.0,nM
8868,DRD4,CHEMBL219,Miconazole,CHEMBL91,IC50,=,15270.0,nM
8869,DRD4,CHEMBL219,Miconazole,CHEMBL91,Ki,=,5354.0,nM
8870,ADRB3,CHEMBL246,Miconazole,CHEMBL91,IC50,=,5482.0,nM
8871,ADRB3,CHEMBL246,Miconazole,CHEMBL91,Ki,=,4111.0,nM
8924,OPRK1,CHEMBL237,Mifepristone,CHEMBL1276308,IC50,=,20096.0,nM
8925,OPRK1,CHEMBL237,Mifepristone,CHEMBL1276308,Ki,=,8038.0,nM
9024,ADRA2B,CHEMBL1942,Mifepristone,CHEMBL1276308,IC50,=,26460.0,nM
9025,ADRA2B,CHEMBL1942,Mifepristone,CHEMBL1276308,Ki,=,12082.0,nM
9168,ADRA2A,CHEMBL1867,Mitotane,CHEMBL1670,IC50,=,7347.0,nM
9169,ADRA2A,CHEMBL1867,Mitotane,CHEMBL1670,Ki,=,2755.0,nM
9173,SLC6A4,CHEMBL228,Mitotane,CHEMBL1670,IC50,=,3015.0,nM
9174,SLC6A4,CHEMBL228,Mitotane,CHEMBL1670,Ki,=,1601.0,nM
9183,HTR2B,CHEMBL1833,Mitotane,CHEMBL1670,IC50,=,4832.0,nM
9184,HTR2B,CHEMBL1833,Mitotane,CHEMBL1670,Ki,=,3075.0,nM
9192,HTR2C,CHEMBL225,Mitoxantrone,CHEMBL58,Ki,=,1865.7,nM
9193,HTR2C,CHEMBL225,Mitoxantrone,CHEMBL58,IC50,=,3561.9,nM
9194,SLC6A2,CHEMBL222,Mitoxantrone,CHEMBL58,IC50,=,4989.8,nM
9195,SLC6A2,CHEMBL222,Mitoxantrone,CHEMBL58,Ki,=,4948.5,nM
9200,KCNH2,CHEMBL240,Mitoxantrone,CHEMBL58,IC50,=,3584.9,nM
9201,KCNH2,CHEMBL240,Mitoxantrone,CHEMBL58,Ki,=,2937.0,nM
9203,HTR1A,CHEMBL214,Moclobemide,CHEMBL86304,Kd,=,5011.87,nM
9258,SLC6A2,CHEMBL222,Nabumetone,CHEMBL1070,IC50,=,1868.0,nM
9259,SLC6A2,CHEMBL222,Nabumetone,CHEMBL1070,Ki,=,1853.0,nM
9376,HTR2C,CHEMBL225,Nifedipine,CHEMBL193,IC50,=,18273.0,nM
9377,HTR2C,CHEMBL225,Nifedipine,CHEMBL193,Ki,=,9572.0,nM
9386,ADORA1,CHEMBL318,Nifedipine,CHEMBL193,Ki,=,2890.0,nM
9388,ADORA1,CHEMBL318,Nifedipine,CHEMBL193,Ki,<,10000.0,nM
9390,ADORA1,CHEMBL226,Nifedipine,CHEMBL193,Ki,=,4492.0,nM
9391,ADORA1,CHEMBL226,Nifedipine,CHEMBL193,IC50,=,7701.0,nM
9393,PTGS1,CHEMBL221,Niflumic acid,CHEMBL63323,IC50,=,1064.0,nM
9394,ADORA2A,CHEMBL251,Nisoldipine,CHEMBL1726,IC50,=,4058.0,nM
9395,ADORA2A,CHEMBL251,Nisoldipine,CHEMBL1726,Ki,=,2278.0,nM
9396,KCNH2,CHEMBL240,Nisoldipine,CHEMBL1726,IC50,=,23000.0,nM
9418,SLC6A3,CHEMBL238,Nocodazole,CHEMBL9514,IC50,=,6232.0,nM
9419,SLC6A3,CHEMBL238,Nocodazole,CHEMBL9514,Ki,=,4946.0,nM
9420,ADORA2A,CHEMBL251,Nocodazole,CHEMBL9514,IC50,=,7509.0,nM
9421,ADORA2A,CHEMBL251,Nocodazole,CHEMBL9514,Ki,=,4219.0,nM
9422,MAOA,CHEMBL1951,Nocodazole,CHEMBL9514,IC50,=,24099.0,nM
9424,ADORA1,CHEMBL226,Nocodazole,CHEMBL9514,Ki,=,29433.0,nM
9425,HTR2B,CHEMBL1833,Nocodazole,CHEMBL9514,IC50,=,20180.0,nM
9426,HTR2B,CHEMBL1833,Nocodazole,CHEMBL9514,Ki,=,12845.0,nM
9475,SLC6A4,CHEMBL228,Norethindrone,CHEMBL1162,IC50,=,4537.0,nM
9476,SLC6A4,CHEMBL228,Norethindrone,CHEMBL1162,Ki,=,2411.0,nM
9751,OPRD1,CHEMBL236,Paclitaxel,CHEMBL428647,IC50,=,4202.0,nM
9752,OPRD1,CHEMBL236,Paclitaxel,CHEMBL428647,Ki,=,1481.0,nM
9754,CCKAR,CHEMBL1901,Paclitaxel,CHEMBL428647,IC50,=,11380.0,nM
9755,CCKAR,CHEMBL1901,Paclitaxel,CHEMBL428647,Ki,=,2276.0,nM
9759,ADRA1A,CHEMBL1907610,Paroxetine,CHEMBL490,Ki,=,5320.0,nM
9772,ADRA2A,CHEMBL2093864,Paroxetine,CHEMBL490,Ki,=,6310.0,nM
9809,ADRA2B,CHEMBL2093864,Paroxetine,CHEMBL490,Ki,=,6310.0,nM
9811,ADRA2C,CHEMBL2093864,Paroxetine,CHEMBL490,Ki,=,6310.0,nM
9813,KCNH2,CHEMBL240,Paroxetine,CHEMBL490,IC50,=,10429.3,nM
9814,KCNH2,CHEMBL240,Paroxetine,CHEMBL490,Ki,=,8544.5,nM
9948,KCNH2,CHEMBL240,Perphenazine,CHEMBL567,IC50,=,4216.0,nM
9949,KCNH2,CHEMBL240,Perphenazine,CHEMBL567,Ki,=,3454.1,nM
9986,HRH1,CHEMBL4701,Phentolamine,CHEMBL597,IC50,=,12589.25,nM
10049,KCNH2,CHEMBL240,Phentolamine,CHEMBL597,Ki,=,16448.0,nM
10050,KCNH2,CHEMBL240,Phentolamine,CHEMBL597,IC50,=,20076.3,nM
10051,HTR2B,CHEMBL1833,Phentolamine,CHEMBL597,IC50,=,3807.0,nM
10052,HTR2B,CHEMBL1833,Phentolamine,CHEMBL597,Ki,=,2422.0,nM
10227,DRD2,CHEMBL339,Prazosin,CHEMBL2,IC50,=,11000.0,nM
10307,HTR2A,CHEMBL322,Prazosin,CHEMBL2,Ki,=,1500.0,nM
10355,HTR1A,CHEMBL273,Prazosin,CHEMBL2,Ki,=,2360.0,nM
10463,HTR2B,CHEMBL1833,Prazosin,CHEMBL2,IC50,=,4118.0,nM
10464,HTR2B,CHEMBL1833,Prazosin,CHEMBL2,Ki,=,2621.0,nM
10662,CHRM2,CHEMBL211,Prochlorperazine,CHEMBL728,IC50,=,3112.0,nM
10663,CHRM2,CHEMBL211,Prochlorperazine,CHEMBL728,Ki,=,1107.0,nM
10670,SLC6A3,CHEMBL238,Prochlorperazine,CHEMBL728,IC50,=,1735.0,nM
10671,SLC6A3,CHEMBL238,Prochlorperazine,CHEMBL728,Ki,=,1379.0,nM
10696,KCNH2,CHEMBL240,Prochlorperazine,CHEMBL728,IC50,=,1848.1,nM
10697,KCNH2,CHEMBL240,Prochlorperazine,CHEMBL728,Ki,=,1514.1,nM
10916,HTR1A,CHEMBL273,Promazine,CHEMBL564,IC50,=,5172.0,nM
10917,HTR1A,CHEMBL273,Promazine,CHEMBL564,Ki,=,2955.0,nM
10938,HRH2,CHEMBL1941,Promazine,CHEMBL564,IC50,=,2858.0,nM
10939,HRH2,CHEMBL1941,Promazine,CHEMBL564,Ki,=,2810.0,nM
11054,HTR2C,CHEMBL225,Propofol,CHEMBL526,IC50,=,11553.0,nM
11055,HTR2C,CHEMBL225,Propofol,CHEMBL526,Ki,=,6051.0,nM
11056,SLC6A2,CHEMBL222,Propofol,CHEMBL526,IC50,=,9393.0,nM
11057,SLC6A2,CHEMBL222,Propofol,CHEMBL526,Ki,=,9316.0,nM
11059,PTGS1,CHEMBL221,Propofol,CHEMBL526,IC50,=,3832.0,nM
11060,HTR2B,CHEMBL1833,Propofol,CHEMBL526,IC50,=,5499.0,nM
11061,HTR2B,CHEMBL1833,Propofol,CHEMBL526,Ki,=,3499.0,nM
11158,KCNH2,CHEMBL240,Quetiapine,CHEMBL716,IC50,=,5754.4,nM
11230,SLC6A3,CHEMBL238,Raloxifene,CHEMBL81,IC50,=,1869.0,nM
11231,SLC6A3,CHEMBL238,Raloxifene,CHEMBL81,Ki,=,1485.0,nM
11232,ADORA2A,CHEMBL251,Raloxifene,CHEMBL81,IC50,=,2111.0,nM
11233,ADORA2A,CHEMBL251,Raloxifene,CHEMBL81,Ki,=,1185.0,nM
11239,DRD1,CHEMBL2056,Raloxifene,CHEMBL81,IC50,=,3864.0,nM
11240,DRD1,CHEMBL2056,Raloxifene,CHEMBL81,Ki,=,1932.0,nM
11243,NR1I2,CHEMBL3401,Raloxifene,CHEMBL81,EC50,=,11710.0,nM
11249,OPRD1,CHEMBL236,Raloxifene,CHEMBL81,IC50,=,6644.0,nM
11250,OPRD1,CHEMBL236,Raloxifene,CHEMBL81,Ki,=,2342.0,nM
11253,SLC6A4,CHEMBL228,Raloxifene,CHEMBL81,IC50,=,3576.0,nM
11254,SLC6A4,CHEMBL228,Raloxifene,CHEMBL81,Ki,=,1900.0,nM
11255,ADRA2B,CHEMBL1942,Raloxifene,CHEMBL81,IC50,=,3698.0,nM
11256,ADRA2B,CHEMBL1942,Raloxifene,CHEMBL81,Ki,=,1688.0,nM
11349,HTR1A,CHEMBL214,Remoxipride,CHEMBL22242,Kd,=,3981.07,nM
11726,HRH2,CHEMBL1941,Risperidone,CHEMBL85,IC50,=,1483.0,nM
11727,HRH2,CHEMBL1941,Risperidone,CHEMBL85,Ki,=,1458.0,nM
11748,AVPR1A,CHEMBL1889,Ritonavir,CHEMBL163,IC50,=,12416.0,nM
11749,AVPR1A,CHEMBL1889,Ritonavir,CHEMBL163,Ki,=,4981.0,nM
11750,OPRK1,CHEMBL237,Ritonavir,CHEMBL163,IC50,=,13655.0,nM
11751,OPRK1,CHEMBL237,Ritonavir,CHEMBL163,Ki,=,5462.0,nM
11753,OPRM1,CHEMBL233,Ritonavir,CHEMBL163,Ki,=,26606.0,nM
11757,HTR3A,CHEMBL2094116,Rizatriptan,CHEMBL905,IC50,=,3981.07,nM
11765,HTR2A,CHEMBL322,Rizatriptan,CHEMBL905,IC50,=,6309.57,nM
11766,HTR2A,CHEMBL224,Rizatriptan,CHEMBL905,IC50,=,7943.28,nM
11774,HTR2C,CHEMBL225,Rizatriptan,CHEMBL905,IC50,=,7943.28,nM
11996,MAOA,CHEMBL1951,Rosiglitazone,CHEMBL121,Ki,=,27600.0,nM
12080,AVPR1A,CHEMBL1889,Saquinavir,CHEMBL114,IC50,=,17522.0,nM
12081,AVPR1A,CHEMBL1889,Saquinavir,CHEMBL114,Ki,=,7030.0,nM
12082,DRD3,CHEMBL234,Saquinavir,CHEMBL114,IC50,=,15366.0,nM
12083,DRD3,CHEMBL234,Saquinavir,CHEMBL114,Ki,=,5219.0,nM
12084,OPRK1,CHEMBL237,Saquinavir,CHEMBL114,IC50,=,6951.0,nM
12085,OPRK1,CHEMBL237,Saquinavir,CHEMBL114,Ki,=,2780.0,nM
12087,SLC6A3,CHEMBL238,Saquinavir,CHEMBL114,Ki,=,27885.0,nM
12088,HTR1A,CHEMBL273,Saquinavir,CHEMBL114,IC50,=,4273.0,nM
12089,HTR1A,CHEMBL273,Saquinavir,CHEMBL114,Ki,=,2442.0,nM
12092,OPRD1,CHEMBL236,Saquinavir,CHEMBL114,IC50,=,28168.0,nM
12093,OPRD1,CHEMBL236,Saquinavir,CHEMBL114,Ki,=,9930.0,nM
12185,ADRA2B,CHEMBL1942,Sibutramine,CHEMBL1419,IC50,=,2390.0,nM
12186,ADRA2B,CHEMBL1942,Sibutramine,CHEMBL1419,Ki,=,1091.0,nM
12274,ESR2,CHEMBL242,Spironolactone,CHEMBL1393,EC50,=,3300.0,nM
12311,EDNRA,CHEMBL4566,Sulfamethoxazole,CHEMBL443,IC50,=,4000.0,nM
12316,AR,CHEMBL3072,Sulfasalazine,CHEMBL421,Ki,=,29301.0,nM
12387,CHRM2,CHEMBL211,Tamoxifen,CHEMBL83,IC50,=,7793.0,nM
12388,CHRM2,CHEMBL211,Tamoxifen,CHEMBL83,Ki,=,2771.0,nM
12391,AR,CHEMBL3072,Tamoxifen,CHEMBL83,IC50,=,22662.0,nM
12392,AR,CHEMBL3072,Tamoxifen,CHEMBL83,Ki,=,15108.0,nM
12393,AR,CHEMBL3072,Tamoxifen,CHEMBL83,IC50,=,12022.64,nM
12394,DRD2,CHEMBL217,Tamoxifen,CHEMBL83,IC50,=,13885.0,nM
12395,DRD2,CHEMBL217,Tamoxifen,CHEMBL83,Ki,=,4628.0,nM
12396,OPRK1,CHEMBL237,Tamoxifen,CHEMBL83,IC50,=,15629.0,nM
12397,OPRK1,CHEMBL237,Tamoxifen,CHEMBL83,Ki,=,6252.0,nM
12454,HTR2A,CHEMBL224,Tamoxifen,CHEMBL83,IC50,=,4801.0,nM
12455,HTR2A,CHEMBL224,Tamoxifen,CHEMBL83,Ki,=,1372.0,nM
12456,TACR1,CHEMBL249,Tamoxifen,CHEMBL83,IC50,=,15656.0,nM
12457,TACR1,CHEMBL249,Tamoxifen,CHEMBL83,Ki,=,8540.0,nM
12458,SLC6A3,CHEMBL238,Tamoxifen,CHEMBL83,IC50,=,1841.0,nM
12459,SLC6A3,CHEMBL238,Tamoxifen,CHEMBL83,Ki,=,1462.0,nM
12460,ADORA2A,CHEMBL251,Tamoxifen,CHEMBL83,IC50,=,7099.0,nM
12461,ADORA2A,CHEMBL251,Tamoxifen,CHEMBL83,Ki,=,3985.0,nM
12464,HTR1A,CHEMBL273,Tamoxifen,CHEMBL83,IC50,=,12160.0,nM
12465,HTR1A,CHEMBL273,Tamoxifen,CHEMBL83,Ki,=,6949.0,nM
12468,DRD1,CHEMBL2056,Tamoxifen,CHEMBL83,IC50,=,8502.0,nM
12469,DRD1,CHEMBL2056,Tamoxifen,CHEMBL83,Ki,=,4251.0,nM
12470,BDKRB2,CHEMBL3157,Tamoxifen,CHEMBL83,IC50,=,20356.0,nM
12471,BDKRB2,CHEMBL3157,Tamoxifen,CHEMBL83,Ki,=,12048.0,nM
12472,OPRM1,CHEMBL233,Tamoxifen,CHEMBL83,IC50,=,17594.0,nM
12473,OPRM1,CHEMBL233,Tamoxifen,CHEMBL83,Ki,=,7142.0,nM
12476,SLC6A2,CHEMBL222,Tamoxifen,CHEMBL83,IC50,=,1472.0,nM
12477,SLC6A2,CHEMBL222,Tamoxifen,CHEMBL83,Ki,=,1459.0,nM
12478,OPRD1,CHEMBL236,Tamoxifen,CHEMBL83,IC50,=,13339.0,nM
12479,OPRD1,CHEMBL236,Tamoxifen,CHEMBL83,Ki,=,4702.0,nM
12482,SLC6A4,CHEMBL228,Tamoxifen,CHEMBL83,IC50,=,2334.0,nM
12483,SLC6A4,CHEMBL228,Tamoxifen,CHEMBL83,Ki,=,1240.0,nM
12485,MC4R,CHEMBL259,Tamoxifen,CHEMBL83,Ki,=,29308.0,nM
12486,ADRB1,CHEMBL213,Tamoxifen,CHEMBL83,IC50,=,17289.0,nM
12487,ADRB1,CHEMBL213,Tamoxifen,CHEMBL83,Ki,=,9984.0,nM
12488,ADRA2B,CHEMBL1942,Tamoxifen,CHEMBL83,IC50,=,3518.0,nM
12489,ADRA2B,CHEMBL1942,Tamoxifen,CHEMBL83,Ki,=,1606.0,nM
12490,MC3R,CHEMBL4644,Tamoxifen,CHEMBL83,IC50,=,19856.0,nM
12491,MC3R,CHEMBL4644,Tamoxifen,CHEMBL83,Ki,=,17329.0,nM
12495,HRH2,CHEMBL1941,Tamoxifen,CHEMBL83,Ki,=,9240.0,nM
12496,HRH2,CHEMBL1941,Tamoxifen,CHEMBL83,IC50,=,9396.0,nM
12574,ADORA1,CHEMBL226,Tamoxifen,CHEMBL83,IC50,=,23767.0,nM
12575,ADORA1,CHEMBL226,Tamoxifen,CHEMBL83,Ki,=,13864.0,nM
12576,PTGS1,CHEMBL221,Tamoxifen,CHEMBL83,IC50,=,4391.0,nM
12577,HTR2B,CHEMBL1833,Tamoxifen,CHEMBL83,IC50,=,2084.0,nM
12578,HTR2B,CHEMBL1833,Tamoxifen,CHEMBL83,Ki,=,1326.0,nM
12579,DRD4,CHEMBL219,Tamoxifen,CHEMBL83,IC50,=,11161.0,nM
12580,DRD4,CHEMBL219,Tamoxifen,CHEMBL83,Ki,=,3913.0,nM
12581,ADRB3,CHEMBL246,Tamoxifen,CHEMBL83,IC50,=,7703.0,nM
12582,ADRB3,CHEMBL246,Tamoxifen,CHEMBL83,Ki,=,5778.0,nM
12629,HTR3A,CHEMBL1899,Tegaserod,CHEMBL76370,Ki,=,2511.89,nM
12703,ADRA2A,CHEMBL1867,Terbinafine,CHEMBL822,IC50,=,5702.9,nM
12704,ADRA2A,CHEMBL1867,Terbinafine,CHEMBL822,Ki,=,2138.6,nM
12705,SLC6A2,CHEMBL222,Terbinafine,CHEMBL822,IC50,=,4129.5,nM
12706,SLC6A2,CHEMBL222,Terbinafine,CHEMBL822,Ki,=,4095.4,nM
12709,DRD2,CHEMBL217,Terfenadine,CHEMBL17157,IC50,=,6167.0,nM
12710,DRD2,CHEMBL217,Terfenadine,CHEMBL17157,Ki,=,2056.0,nM
12777,HTR2C,CHEMBL225,Tetracaine,CHEMBL698,IC50,=,3268.0,nM
12778,HTR2C,CHEMBL225,Tetracaine,CHEMBL698,Ki,=,1712.0,nM
12939,SLC6A3,CHEMBL238,Thioridazine,CHEMBL479,IC50,=,2376.0,nM
12940,SLC6A3,CHEMBL238,Thioridazine,CHEMBL479,Ki,=,1888.0,nM
12959,SLC6A2,CHEMBL222,Thioridazine,CHEMBL479,IC50,=,1551.0,nM
12960,SLC6A2,CHEMBL222,Thioridazine,CHEMBL479,Ki,=,1538.0,nM
13011,HTR1A,CHEMBL273,Timolol,CHEMBL499,IC50,=,2712.0,nM
13012,HTR1A,CHEMBL273,Timolol,CHEMBL499,Ki,=,1550.0,nM
13022,HTR2B,CHEMBL1833,Tolnaftate,CHEMBL83668,IC50,=,2007.0,nM
13023,HTR2B,CHEMBL1833,Tolnaftate,CHEMBL83668,Ki,=,1277.0,nM
13152,KCNH2,CHEMBL240,Trifluoperazine,CHEMBL422,IC50,=,6226.0,nM
13153,KCNH2,CHEMBL240,Trifluoperazine,CHEMBL422,Ki,=,5100.8,nM
13164,HTR2C,CHEMBL225,Trioxsalen,CHEMBL1475,IC50,=,2356.0,nM
13165,HTR2C,CHEMBL225,Trioxsalen,CHEMBL1475,Ki,=,1234.0,nM
13181,MAOA,CHEMBL3358,Troglitazone,CHEMBL408,Ki,=,4800.0,nM
13182,MAOA,CHEMBL1951,Troglitazone,CHEMBL408,Ki,=,10500.0,nM
13204,SLC6A2,CHEMBL222,Valdecoxib,CHEMBL865,IC50,=,2927.0,nM
13205,SLC6A2,CHEMBL222,Valdecoxib,CHEMBL865,Ki,=,2903.0,nM
13416,SLC6A3,CHEMBL238,Amlodipine,CHEMBL1491,IC50,=,5521.0,nM
13417,SLC6A3,CHEMBL238,Amlodipine,CHEMBL1491,Ki,=,4387.0,nM
13534,ADRA1A,CHEMBL1907610,Apomorphine,CHEMBL53,IC50,=,7750.0,nM
13611,ADRB2,CHEMBL5414,Atenolol,CHEMBL24,Kd,=,1174.9,nM
13613,ADRB2,CHEMBL5414,Atenolol,CHEMBL24,Kd,=,1258.93,nM
13618,ADRB2,CHEMBL210,Atenolol,CHEMBL24,IC50,=,14634.0,nM
13619,ADRB2,CHEMBL210,Atenolol,CHEMBL24,Ki,=,10061.0,nM
13824,AR,CHEMBL3072,Budesonide,CHEMBL1370,IC50,=,1635.0,nM
13825,AR,CHEMBL3072,Budesonide,CHEMBL1370,Ki,=,1090.0,nM
13854,KCNH2,CHEMBL240,Buprenorphine,CHEMBL511142,IC50,=,7943.28,nM
13902,KCNH2,CHEMBL240,Buprenorphine,CHEMBL560511,IC50,=,7585.78,nM
13903,PTGS2,CHEMBL230,Captopril,CHEMBL1560,Ki,=,12000.0,nM
13906,PTGS1,CHEMBL221,Captopril,CHEMBL1560,Ki,=,17000.0,nM
13944,CHRM2,CHEMBL211,Chlorpheniramine,CHEMBL1201353,IC50,=,6994.0,nM
13945,CHRM2,CHEMBL211,Chlorpheniramine,CHEMBL1201353,Ki,=,2487.0,nM
13946,HTR2A,CHEMBL224,Chlorpheniramine,CHEMBL1201353,IC50,=,3692.0,nM
13947,HTR2A,CHEMBL224,Chlorpheniramine,CHEMBL1201353,Ki,=,1055.0,nM
13954,ADRA2A,CHEMBL1867,Chlorpheniramine,CHEMBL1201353,IC50,=,20333.0,nM
13955,ADRA2A,CHEMBL1867,Chlorpheniramine,CHEMBL1201353,Ki,=,7625.0,nM
13956,HTR2C,CHEMBL225,Chlorpheniramine,CHEMBL1201353,IC50,=,2322.0,nM
13957,HTR2C,CHEMBL225,Chlorpheniramine,CHEMBL1201353,Ki,=,1217.0,nM
13965,ADRA2B,CHEMBL1942,Chlorpheniramine,CHEMBL1201353,IC50,=,4607.0,nM
13966,ADRA2B,CHEMBL1942,Chlorpheniramine,CHEMBL1201353,Ki,=,2103.0,nM
13968,HRH2,CHEMBL1941,Chlorpheniramine,CHEMBL1201353,IC50,=,8368.0,nM
13969,HRH2,CHEMBL1941,Chlorpheniramine,CHEMBL1201353,Ki,=,8228.0,nM
14122,HTR2B,CHEMBL1833,Citalopram,CHEMBL549,IC50,=,1839.0,nM
14123,HTR2B,CHEMBL1833,Citalopram,CHEMBL549,Ki,=,1171.0,nM
14146,SLC6A4,CHEMBL228,Dobutamine,CHEMBL926,IC50,=,1895.0,nM
14147,SLC6A4,CHEMBL228,Dobutamine,CHEMBL926,Ki,=,1006.0,nM
14155,KCNH2,CHEMBL240,Doxepin,CHEMBL101740,IC50,=,6456.54,nM
14228,OPRM1,CHEMBL270,Epinephrine,CHEMBL679,Ki,=,4000.0,nM
14294,HTR1A,CHEMBL273,Fenfluramine,CHEMBL248702,Ki,=,1944.0,nM
14295,HTR1A,CHEMBL273,Fenfluramine,CHEMBL248702,IC50,=,3403.0,nM
14362,ADRA2A,CHEMBL2093864,Fluoxetine,CHEMBL41,Ki,=,1920.0,nM
14487,ADRA2C,CHEMBL2093864,Fluoxetine,CHEMBL41,Ki,=,1920.0,nM
14871,ADRA2A,CHEMBL2093864,Isoproterenol,CHEMBL434,Ki,=,21000.0,nM
14905,ADRA2B,CHEMBL2093864,Isoproterenol,CHEMBL434,Ki,=,21000.0,nM
14907,ADRA2C,CHEMBL2093864,Isoproterenol,CHEMBL434,Ki,=,21000.0,nM
14977,CHRM2,CHEMBL211,Ketoconazole,CHEMBL295698,IC50,=,26346.0,nM
14978,CHRM2,CHEMBL211,Ketoconazole,CHEMBL295698,Ki,=,9368.0,nM
14979,SLC6A3,CHEMBL238,Ketoconazole,CHEMBL295698,IC50,=,23517.0,nM
14980,SLC6A3,CHEMBL238,Ketoconazole,CHEMBL295698,Ki,=,18685.0,nM
14981,ADRA2A,CHEMBL1867,Ketoconazole,CHEMBL295698,IC50,=,19783.0,nM
14982,ADRA2A,CHEMBL1867,Ketoconazole,CHEMBL295698,Ki,=,7419.0,nM
14987,SLC6A2,CHEMBL222,Ketoconazole,CHEMBL295698,IC50,=,24203.0,nM
14988,SLC6A2,CHEMBL222,Ketoconazole,CHEMBL295698,Ki,=,24003.0,nM
14989,OPRD1,CHEMBL236,Ketoconazole,CHEMBL295698,IC50,=,12797.0,nM
14990,OPRD1,CHEMBL236,Ketoconazole,CHEMBL295698,Ki,=,4511.0,nM
14995,ADRA2B,CHEMBL1942,Ketoconazole,CHEMBL295698,IC50,=,18047.0,nM
14996,ADRA2B,CHEMBL1942,Ketoconazole,CHEMBL295698,Ki,=,8239.0,nM
15004,HRH2,CHEMBL1941,Ketoconazole,CHEMBL295698,IC50,=,21872.0,nM
15005,HRH2,CHEMBL1941,Ketoconazole,CHEMBL295698,Ki,=,21507.0,nM
15265,DRD4,CHEMBL219,Mianserin,CHEMBL6437,IC50,=,3311.31,nM
15328,CNR1,CHEMBL218,Nimodipine,CHEMBL1428,IC50,=,1736.0,nM
15329,CNR1,CHEMBL218,Nimodipine,CHEMBL1428,Ki,=,1371.0,nM
15334,ADORA1,CHEMBL318,Nimodipine,CHEMBL1428,Ki,=,20100.0,nM
15335,ADORA2A,CHEMBL302,Nitrendipine,CHEMBL475534,Ki,=,23000.0,nM
15352,ADORA1,CHEMBL318,Nitrendipine,CHEMBL475534,Ki,=,8960.0,nM
15431,OPRM1,CHEMBL270,Norepinephrine,CHEMBL1437,Ki,=,14000.0,nM
15640,GABRA1,CHEMBL1907607,Ondansetron,CHEMBL46,IC50,=,10000.0,nM
15695,HTR2C,CHEMBL2093870,Ondansetron,CHEMBL46,Ki,=,10000.0,nM
15698,CHRM1,CHEMBL276,Ondansetron,CHEMBL46,Ki,=,10000.0,nM
15713,CHRNA10,CHEMBL4980,Ondansetron,CHEMBL46,IC50,=,25000.0,nM
15717,CHRNA10,CHEMBL1907594,Ondansetron,CHEMBL46,IC50,=,27000.0,nM
15818,HTR2B,CHEMBL2093870,Pindolol,CHEMBL500,Ki,=,29500.0,nM
15897,HRH1,CHEMBL4701,Procyclidine,CHEMBL86715,IC50,=,6760.83,nM
15898,HRH1,CHEMBL231,Procyclidine,CHEMBL86715,IC50,=,17782.79,nM
15923,HTR1A,CHEMBL273,Promethazine,CHEMBL643,IC50,=,2596.0,nM
15924,HTR1A,CHEMBL273,Promethazine,CHEMBL643,Ki,=,1484.0,nM
15929,DRD1,CHEMBL2056,Promethazine,CHEMBL643,IC50,=,2744.0,nM
15930,DRD1,CHEMBL2056,Promethazine,CHEMBL643,Ki,=,1372.0,nM
15933,SLC6A2,CHEMBL222,Promethazine,CHEMBL643,IC50,=,4238.0,nM
15934,SLC6A2,CHEMBL222,Promethazine,CHEMBL643,Ki,=,4203.0,nM
15937,SLC6A4,CHEMBL228,Promethazine,CHEMBL643,IC50,=,7590.0,nM
15938,SLC6A4,CHEMBL228,Promethazine,CHEMBL643,IC50,=,4010.0,nM
15939,SLC6A4,CHEMBL228,Promethazine,CHEMBL643,Ki,=,2130.0,nM
15944,HRH2,CHEMBL1941,Promethazine,CHEMBL643,IC50,=,1165.0,nM
15945,HRH2,CHEMBL1941,Promethazine,CHEMBL643,Ki,=,1146.0,nM
15953,DRD2,CHEMBL339,Propranolol,CHEMBL27,Ki,=,12902.0,nM
16110,OPRM1,CHEMBL233,Reserpine,CHEMBL772,IC50,=,4152.0,nM
16111,OPRM1,CHEMBL233,Reserpine,CHEMBL772,Ki,=,1686.0,nM
16225,KCNH2,CHEMBL240,Sertraline,CHEMBL809,IC50,=,8317.3,nM
16226,KCNH2,CHEMBL240,Sertraline,CHEMBL809,Ki,=,6814.1,nM
16227,HTR2B,CHEMBL1833,Sertraline,CHEMBL809,IC50,=,3393.5,nM
16228,HTR2B,CHEMBL1833,Sertraline,CHEMBL809,Ki,=,2159.5,nM
16313,NR3C1,CHEMBL2034,Testosterone,CHEMBL386630,IC50,=,3206.0,nM
16314,NR3C1,CHEMBL2034,Testosterone,CHEMBL386630,Ki,=,1457.0,nM
16419,HTR1A,CHEMBL273,Verapamil,CHEMBL6966,IC50,=,3020.0,nM
16420,HTR1A,CHEMBL273,Verapamil,CHEMBL6966,Ki,=,1726.0,nM
16446,HRH2,CHEMBL1941,Verapamil,CHEMBL6966,IC50,=,2590.0,nM
16447,HRH2,CHEMBL1941,Verapamil,CHEMBL6966,Ki,=,2547.0,nM
16457,SLC6A4,CHEMBL313,Viloxazine,CHEMBL306700,Ki,=,16500.0,nM
16458,SLC6A4,CHEMBL228,Viloxazine,CHEMBL306700,Kd,=,17300.0,nM
16647,DRD4,CHEMBL2093868,Yohimbine,CHEMBL15245,Ki,=,2000.0,nM
16720,HTR2A,CHEMBL224,Genistein,CHEMBL44,IC50,=,10469.0,nM
16721,HTR2A,CHEMBL224,Genistein,CHEMBL44,Ki,=,2991.0,nM
16722,SLC6A3,CHEMBL238,Genistein,CHEMBL44,IC50,=,16918.0,nM
16723,SLC6A3,CHEMBL238,Genistein,CHEMBL44,Ki,=,13442.0,nM
16726,ADORA2A,CHEMBL251,Genistein,CHEMBL44,IC50,=,17442.0,nM
16727,ADORA2A,CHEMBL251,Genistein,CHEMBL44,Ki,=,9792.0,nM
16728,HTR2C,CHEMBL225,Genistein,CHEMBL44,IC50,=,14910.0,nM
16729,HTR2C,CHEMBL225,Genistein,CHEMBL44,Ki,=,7806.0,nM
16772,ADORA1,CHEMBL318,Genistein,CHEMBL44,Ki,=,5000.0,nM
16774,ADORA1,CHEMBL226,Genistein,CHEMBL44,IC50,=,19904.0,nM
16775,ADORA1,CHEMBL226,Genistein,CHEMBL44,Ki,=,11611.0,nM
16994,SLC6A3,CHEMBL238,Estradiol beta,CHEMBL135,IC50,=,14911.0,nM
16995,SLC6A3,CHEMBL238,Estradiol beta,CHEMBL135,Ki,=,11847.0,nM
16996,SLC6A4,CHEMBL228,Estradiol beta,CHEMBL135,IC50,=,10755.0,nM
16997,SLC6A4,CHEMBL228,Estradiol beta,CHEMBL135,Ki,=,5714.0,nM
17007,NR3C1,CHEMBL2034,Estradiol beta,CHEMBL135,Ki,=,18828.0,nM
